﻿


EVENT   1
 PAGE   1
  0()



EVENT   2
 PAGE   1
  0()



EVENT   3
 PAGE   1
  0()



EVENT   4
 PAGE   1
  0()



EVENT   5
 PAGE   1
  0()



EVENT   6
 PAGE   1
  0()



EVENT   7
 PAGE   1
  0()



EVENT   8
 PAGE   1
  281(1)
  250(bytes(0x04,0x08,0x6f,0x3a,0x0c,0x52,0x50,0x47,0x3a,0x3a,0x53,0x45,0x08,0x3a,0x0a,0x40,0x6e,0x61,0x6d,0x65,0x49,0x22,0x09,0x4d,0x6f,0x76,0x65,0x06,0x3a,0x06,0x45,0x54,0x3a,0x0b,0x40,0x70,0x69,0x74,0x63,0x68,0x69,0x69,0x3a,0x0c,0x40,0x76,0x6f,0x6c,0x75,0x6d,0x65,0x69,0x55))
  TeleportPlayer(0,143,5,28,0,0)
  216(0)
  0()



EVENT   9
 PAGE   1
  281(1)
  250(bytes(0x04,0x08,0x6f,0x3a,0x0c,0x52,0x50,0x47,0x3a,0x3a,0x53,0x45,0x08,0x3a,0x0a,0x40,0x6e,0x61,0x6d,0x65,0x49,0x22,0x09,0x4d,0x6f,0x76,0x65,0x06,0x3a,0x06,0x45,0x54,0x3a,0x0b,0x40,0x70,0x69,0x74,0x63,0x68,0x69,0x69,0x3a,0x0c,0x40,0x76,0x6f,0x6c,0x75,0x6d,0x65,0x69,0x55))
  TeleportPlayer(0,143,29,33,0,0)
  0()



EVENT   10
 PAGE   1
  281(1)
  250(bytes(0x04,0x08,0x6f,0x3a,0x0c,0x52,0x50,0x47,0x3a,0x3a,0x53,0x45,0x08,0x3a,0x0a,0x40,0x6e,0x61,0x6d,0x65,0x49,0x22,0x09,0x4d,0x6f,0x76,0x65,0x06,0x3a,0x06,0x45,0x54,0x3a,0x0b,0x40,0x70,0x69,0x74,0x63,0x68,0x69,0x69,0x3a,0x0c,0x40,0x76,0x6f,0x6c,0x75,0x6d,0x65,0x69,0x55))
  TeleportPlayer(0,143,45,34,0,0)
  0()



EVENT   11
 PAGE   1
  281(1)
  250(bytes(0x04,0x08,0x6f,0x3a,0x0c,0x52,0x50,0x47,0x3a,0x3a,0x53,0x45,0x08,0x3a,0x0a,0x40,0x6e,0x61,0x6d,0x65,0x49,0x22,0x09,0x4d,0x6f,0x76,0x65,0x06,0x3a,0x06,0x45,0x54,0x3a,0x0b,0x40,0x70,0x69,0x74,0x63,0x68,0x69,0x69,0x3a,0x0c,0x40,0x76,0x6f,0x6c,0x75,0x6d,0x65,0x69,0x55))
  TeleportPlayer(0,143,24,34,0,0)
  0()



EVENT   12
 PAGE   1
  281(1)
  250(bytes(0x04,0x08,0x6f,0x3a,0x0c,0x52,0x50,0x47,0x3a,0x3a,0x53,0x45,0x08,0x3a,0x0a,0x40,0x6e,0x61,0x6d,0x65,0x49,0x22,0x09,0x4d,0x6f,0x76,0x65,0x06,0x3a,0x06,0x45,0x54,0x3a,0x0b,0x40,0x70,0x69,0x74,0x63,0x68,0x69,0x69,0x3a,0x0c,0x40,0x76,0x6f,0x6c,0x75,0x6d,0x65,0x69,0x55))
  TeleportPlayer(0,143,19,49,0,0)
  0()



EVENT   13
 PAGE   1
  281(1)
  250(bytes(0x04,0x08,0x6f,0x3a,0x0c,0x52,0x50,0x47,0x3a,0x3a,0x53,0x45,0x08,0x3a,0x0a,0x40,0x6e,0x61,0x6d,0x65,0x49,0x22,0x09,0x4d,0x6f,0x76,0x65,0x06,0x3a,0x06,0x45,0x54,0x3a,0x0b,0x40,0x70,0x69,0x74,0x63,0x68,0x69,0x69,0x3a,0x0c,0x40,0x76,0x6f,0x6c,0x75,0x6d,0x65,0x69,0x55))
  TeleportPlayer(0,143,37,51,0,0)
  0()



EVENT   14
 PAGE   1
  250(bytes(0x04,0x08,0x6f,0x3a,0x0c,0x52,0x50,0x47,0x3a,0x3a,0x53,0x45,0x08,0x3a,0x0a,0x40,0x6e,0x61,0x6d,0x65,0x49,0x22,0x09,0x4d,0x6f,0x76,0x65,0x06,0x3a,0x06,0x45,0x54,0x3a,0x0b,0x40,0x70,0x69,0x74,0x63,0x68,0x69,0x69,0x3a,0x0c,0x40,0x76,0x6f,0x6c,0x75,0x6d,0x65,0x69,0x55))
  TeleportPlayer(0,144,41,28,0,0)
  0()



EVENT   15
 PAGE   1
  250(bytes(0x04,0x08,0x6f,0x3a,0x0c,0x52,0x50,0x47,0x3a,0x3a,0x53,0x45,0x08,0x3a,0x0a,0x40,0x6e,0x61,0x6d,0x65,0x49,0x22,0x09,0x4d,0x6f,0x76,0x65,0x06,0x3a,0x06,0x45,0x54,0x3a,0x0b,0x40,0x70,0x69,0x74,0x63,0x68,0x69,0x69,0x3a,0x0c,0x40,0x76,0x6f,0x6c,0x75,0x6d,0x65,0x69,0x55))
  TeleportPlayer(0,144,42,28,0,0)
  0()



EVENT   16
 PAGE   1
  250(bytes(0x04,0x08,0x6f,0x3a,0x0c,0x52,0x50,0x47,0x3a,0x3a,0x53,0x45,0x08,0x3a,0x0a,0x40,0x6e,0x61,0x6d,0x65,0x49,0x22,0x09,0x4d,0x6f,0x76,0x65,0x06,0x3a,0x06,0x45,0x54,0x3a,0x0b,0x40,0x70,0x69,0x74,0x63,0x68,0x69,0x69,0x3a,0x0c,0x40,0x76,0x6f,0x6c,0x75,0x6d,0x65,0x69,0x55))
  TeleportPlayer(0,144,41,6,0,0)
  0()



EVENT   17
 PAGE   1
  250(bytes(0x04,0x08,0x6f,0x3a,0x0c,0x52,0x50,0x47,0x3a,0x3a,0x53,0x45,0x08,0x3a,0x0a,0x40,0x6e,0x61,0x6d,0x65,0x49,0x22,0x09,0x4d,0x6f,0x76,0x65,0x06,0x3a,0x06,0x45,0x54,0x3a,0x0b,0x40,0x70,0x69,0x74,0x63,0x68,0x69,0x69,0x3a,0x0c,0x40,0x76,0x6f,0x6c,0x75,0x6d,0x65,0x69,0x55))
  TeleportPlayer(0,144,42,6,0,0)
  0()



EVENT   18
 PAGE   1
  ShowMessageFace("",0,0,2,1)
  ShowMessage("\\n<Merchant>Come on in, we've prepared various weapons and armor!\nDon't tell anyone else, but rumor has it our equipment is a favorite of the hero Luka!")
  Shop(1,23,0,0,false)
  605(1,104,0,0)
  605(1,130,0,0)
  605(1,246,0,0)
  605(1,605,0,0)
  605(2,25,0,0)
  605(2,85,0,0)
  605(2,169,0,0)
  605(2,215,0,0)
  605(2,310,0,0)
  0()



EVENT   19
 PAGE   1
  ShowMessageFace("dragon_fc1",0,0,2,1)
  ShowMessage("\\n<Dragon Blacksmith>The dragon race's affinity with flames makes us suited for blacksmithing. Among them, my abilities are some of the best in the world!")
  ShowChoices(strings("Synthesis","Make Orichalcum equipment","Talk"),5)
  IfPlayerPicksChoice(0,null)
   355("call_synthesize(18)")
   EndEventProcessing()
   0()
  IfPlayerPicksChoice(1,null)
   If(8,156)
    Shop(1,24,0,0,false)
    605(1,106,0,0)
    605(1,160,0,0)
    605(1,225,0,0)
    605(1,273,0,0)
    605(1,315,0,0)
    605(1,349,0,0)
    605(1,384,0,0)
    605(1,423,0,0)
    605(1,458,0,0)
    605(1,492,0,0)
    605(1,532,0,0)
    605(1,572,0,0)
    605(1,607,0,0)
    605(1,642,0,0)
    605(1,682,0,0)
    605(1,714,0,0)
    605(1,741,0,0)
    605(1,765,0,0)
    605(1,786,0,0)
    605(1,809,0,0)
    605(1,834,0,0)
    605(1,857,0,0)
    605(2,44,0,0)
    605(2,86,0,0)
    605(2,115,0,0)
    605(2,217,0,0)
    605(2,250,0,0)
    605(2,312,0,0)
    605(0,105,0,0)
    EndEventProcessing()
    0()
   Else()
    ShowMessageFace("dragon_fc1",0,0,2,2)
    ShowMessage("\\n<Dragon Blacksmith>How can I manufacture the equipment without any ore to use as raw material? Come on, go acquire it yourself!")
    EndEventProcessing()
    0()
   EndIf()
   0()
  IfPlayerPicksChoice(2,null)
   If(8,156)
    If(1,1007,0,4,0)
     If(4,68,0)
      If(2,"A",1)
       ChangeSelfSwitch("A",0)
       ShowMessageFace("dragonp_fc1",0,0,2,3)
       ShowMessage("\\n<Papi>I want to become the world's greatest blacksmith! So I want you to teach me how to work with orichalcum!")
       ShowMessageFace("dragon_fc1",0,0,2,4)
       ShowMessage("\\n<Dragon Blacksmith>You're from the same race as me, I don't have to teach you anything.\nYour skills look good enough judging from your appearance...")
       ShowMessageFace("dragon_fc1",0,0,2,5)
       ShowMessage("\\n<Dragon Blacksmith>...But your tools are useless.\nYou won't be able to work with orichalcum using that hammer.")
       ShowMessageFace("dragonp_fc1",2,0,2,6)
       ShowMessage("\\n<Papi>You're right... It's my favorite hammer, but I've felt it would soon reach its limits.")
       ShowMessageFace("dragon_fc1",0,0,2,7)
       ShowMessage("\\n<Dragon Blacksmith>I skillfully used a hammer without a signature for a very long time. Beyond working with orichalcum however, there are also hammers which are top-notch.")
       ShowMessageFace("dragon_fc1",0,0,2,8)
       ShowMessage("\\n<Dragon Blacksmith>If you want to be the greatest blacksmith in the world, you'll need the best hammer, the [Dragon Forge Hammer]... If you have that, you'll be suitable for becoming the best in the world.")
       ShowMessageFace("dragon_fc1",0,0,2,9)
       ShowMessage("\\n<Dragon Blacksmith>Of course, I must tell you that no shop anywhere will carry it. It's rumored to exist in the northern undersea temple...")
       ShowMessageFace("dragonp_fc1",0,0,2,10)
       ShowMessage("\\n<Papi>The northern undersea temple... Let's go find it!")
       ShowMessageFace("dragon_fc1",0,0,2,11)
       ShowMessage("\\n<Dragon Blacksmith>You should come back again once you obtain it. Then I will teach you how to work with orichalcum.")
       EndEventProcessing()
       0()
      Else()
       If(8,552)
        ShowMessageFace("dragon_fc1",0,0,2,12)
        ShowMessage("\\n<Dragon Blacksmith>It looks like you've obtained the [Dragon Forge Hammer]. If the person handling it is a first-rate blacksmith, I'll be able to teach you my skill.")
        ShowMessageFace("dragonp_fc1",0,0,2,13)
        ShowMessage("\\n<Papi>I study with all my power!\nI look forward to working with you!")
        221()
        Wait(60)
        250(bytes(0x04,0x08,0x6f,0x3a,0x0c,0x52,0x50,0x47,0x3a,0x3a,0x53,0x45,0x08,0x3a,0x0a,0x40,0x6e,0x61,0x6d,0x65,0x49,0x22,0x0d,0x6d,0x6f,0x6e,0x5f,0x6b,0x61,0x7a,0x69,0x06,0x3a,0x06,0x45,0x54,0x3a,0x0b,0x40,0x70,0x69,0x74,0x63,0x68,0x69,0x69,0x3a,0x0c,0x40,0x76,0x6f,0x6c,0x75,0x6d,0x65,0x69,0x69))
        Wait(60)
        250(bytes(0x04,0x08,0x6f,0x3a,0x0c,0x52,0x50,0x47,0x3a,0x3a,0x53,0x45,0x08,0x3a,0x0a,0x40,0x6e,0x61,0x6d,0x65,0x49,0x22,0x0d,0x6d,0x6f,0x6e,0x5f,0x6b,0x61,0x7a,0x69,0x06,0x3a,0x06,0x45,0x54,0x3a,0x0b,0x40,0x70,0x69,0x74,0x63,0x68,0x69,0x69,0x3a,0x0c,0x40,0x76,0x6f,0x6c,0x75,0x6d,0x65,0x69,0x69))
        Wait(60)
        222()
        ShowMessageFace("dragonp_fc1",4,0,2,14)
        ShowMessage("\\n<Papi>I-I can't do it...")
        ShowMessageFace("dragon_fc1",0,0,2,15)
        ShowMessage("\\n<Dragon Blacksmith>Don't complain, grip the hammer.\nYou have to be able to...")
        ShowMessageFace("dragonp_fc1",0,0,2,16)
        ShowMessage("\\n<Papi>No! I'm not giving up!\nUgaaaaa!")
        221()
        Wait(60)
        250(bytes(0x04,0x08,0x6f,0x3a,0x0c,0x52,0x50,0x47,0x3a,0x3a,0x53,0x45,0x08,0x3a,0x0a,0x40,0x6e,0x61,0x6d,0x65,0x49,0x22,0x0d,0x6d,0x6f,0x6e,0x5f,0x6b,0x61,0x7a,0x69,0x06,0x3a,0x06,0x45,0x54,0x3a,0x0b,0x40,0x70,0x69,0x74,0x63,0x68,0x69,0x69,0x3a,0x0c,0x40,0x76,0x6f,0x6c,0x75,0x6d,0x65,0x69,0x69))
        Wait(60)
        250(bytes(0x04,0x08,0x6f,0x3a,0x0c,0x52,0x50,0x47,0x3a,0x3a,0x53,0x45,0x08,0x3a,0x0a,0x40,0x6e,0x61,0x6d,0x65,0x49,0x22,0x0d,0x6d,0x6f,0x6e,0x5f,0x6b,0x61,0x7a,0x69,0x06,0x3a,0x06,0x45,0x54,0x3a,0x0b,0x40,0x70,0x69,0x74,0x63,0x68,0x69,0x69,0x3a,0x0c,0x40,0x76,0x6f,0x6c,0x75,0x6d,0x65,0x69,0x69))
        Wait(60)
        222()
        ShowMessageFace("dragonp_fc1",0,0,2,17)
        ShowMessage("\\n<Papi>...I-I did it!\nI've definitely gotten the hang of it!")
        ShowMessageFace("dragon_fc1",0,0,2,18)
        ShowMessage("\\n<Dragon Blacksmith>Yes, that's good enough.\nOnce you've tried it a few more times, you'll become perfectly familiar with the trick.")
        ShowMessageFace("dragonp_fc1",3,0,2,19)
        ShowMessage("\\n<Papi>Thank you!\nNow that I can work with orichalcum, I feel like I've seen the summit!")
        249(bytes(0x04,0x08,0x6f,0x3a,0x0c,0x52,0x50,0x47,0x3a,0x3a,0x4d,0x45,0x08,0x3a,0x0a,0x40,0x6e,0x61,0x6d,0x65,0x49,0x22,0x0c,0x66,0x61,0x6e,0x66,0x61,0x6c,0x65,0x06,0x3a,0x06,0x45,0x54,0x3a,0x0b,0x40,0x70,0x69,0x74,0x63,0x68,0x69,0x69,0x3a,0x0c,0x40,0x76,0x6f,0x6c,0x75,0x6d,0x65,0x69,0x69))
        ShowMessageFace("",0,0,2,20)
        ShowMessage("Papi is now able to craft orichalcum equipment!")
        ChangeVariable(1007,1007,0,0,5)
        Wait(60)
        ShowMessageFace("dragon_fc1",0,0,2,21)
        ShowMessage("\\n<Dragon Blacksmith>...No, there still exist materials unknown to this world. There is an element called [Rainbow] that only some monsters know about.")
        ShowMessageFace("dragon_fc1",0,0,2,22)
        ShowMessage("\\n<Dragon Blacksmith>Most blacksmiths aren't even aware of its existence. There are no more than five people in this world who can work with it.")
        ShowMessageFace("dragon_fc1",0,0,2,23)
        ShowMessage("\\n<Dragon Blacksmith>If you ever go to Fairy's Island, search for the elven smith. The technique for working with [Rainbow] should've been passed down to someone among their people.")
        ShowMessageFace("dragonp_fc1",0,0,2,24)
        ShowMessage("\\n<Papi>Rainbow... There are still materials like that out there. I'm getting fired up even more!")
        EndEventProcessing()
        0()
       Else()
        ShowMessageFace("dragon_fc1",0,0,2,25)
        ShowMessage("\\n<Dragon Blacksmith>...But your tools are useless.\nYou won't be able to work with orichalcum using that hammer.")
        ShowMessageFace("dragon_fc1",0,0,2,26)
        ShowMessage("\\n<Dragon Blacksmith>If you want to be the greatest blacksmith in the world, you'll need the best hammer, the [Dragon Forge Hammer]... If you have that, you'll be suitable for becoming the best in the world.")
        ShowMessageFace("dragon_fc1",0,0,2,27)
        ShowMessage("\\n<Dragon Blacksmith>Of course, I must tell you that no shop anywhere will carry it. It's rumored to exist in the northern undersea temple...")
        ShowMessageFace("dragon_fc1",0,0,2,28)
        ShowMessage("\\n<Dragon Blacksmith>You should come back again once you obtain it. Then I will teach you how to work with orichalcum.")
        EndEventProcessing()
        0()
       EndIf()
       0()
      EndIf()
      0()
     EndIf()
     0()
    EndIf()
    0()
   EndIf()
   ShowMessageFace("dragon_fc1",0,0,2,29)
   ShowMessage("\\n<Dragon Blacksmith>My ultimate goal is to handle the material that is only passed down to the elves, [Rainbow]... If can work with that, it will prove I'm the best blacksmith.")
   EndEventProcessing()
   0()
  IfPlayerCancelsChoice()
   EndEventProcessing()
   0()
  404()
  0()



EVENT   20
 PAGE   1
  ShowMessageFace("",0,0,2,1)
  ShowMessage("\\n<Couple's Accessory Shop>Welcome, travelers.\nOur accessories will help you when you're in a pinch.")
  Shop(2,1055,0,0,false)
  605(2,1060,0,0)
  605(2,1065,0,0)
  605(2,1107,0,0)
  605(2,1109,0,0)
  605(2,1120,0,0)
  605(2,1146,0,0)
  0()



EVENT   21
 PAGE   1
  ShowMessageFace("",0,0,2,1)
  ShowMessage("\\n<Couple's Tool Shop>Hello, travelers.\nAre you running low on items?")
  Shop(0,2,0,0,false)
  605(0,7,0,0)
  605(0,11,0,0)
  605(0,13,0,0)
  605(0,14,0,0)
  605(0,15,0,0)
  605(0,16,0,0)
  605(0,17,0,0)
  605(0,18,0,0)
  605(0,19,0,0)
  605(0,20,0,0)
  605(0,23,0,0)
  605(0,35,0,0)
  0()



EVENT   22
 PAGE   1
  If(1,830,0,2,1)
   If(0,1579,1)
    ShowMessageFace("mob_sanzoku_fc1",0,0,2,1)
    ShowMessage("\\n<Magda>Would you like to take me along?\nEven I can be useful!")
    ShowChoices(strings("Let her join","Decline for now"),0)
    IfPlayerPicksChoice(0,null)
     ShowMessageFace("mob_sanzoku_fc1",0,0,2,2)
     ShowMessage("\\n<Magda>Yeah! Let's go wild!")
     PictureClear(5)
     205(0,bytes(0x04,0x08,0x6f,0x3a,0x13,0x52,0x50,0x47,0x3a,0x3a,0x4d,0x6f,0x76,0x65,0x52,0x6f,0x75,0x74,0x65,0x09,0x3a,0x0c,0x40,0x72,0x65,0x70,0x65,0x61,0x74,0x46,0x3a,0x0f,0x40,0x73,0x6b,0x69,0x70,0x70,0x61,0x62,0x6c,0x65,0x46,0x3a,0x0a,0x40,0x77,0x61,0x69,0x74,0x54,0x3a,0x0a,0x40,0x6c,0x69,0x73,0x74,0x5b,0x09,0x6f,0x3a,0x15,0x52,0x50,0x47,0x3a,0x3a,0x4d,0x6f,0x76,0x65,0x43,0x6f,0x6d,0x6d,0x61,0x6e,0x64,0x07,0x3a,0x0a,0x40,0x63,0x6f,0x64,0x65,0x69,0x2a,0x3a,0x10,0x40,0x70,0x61,0x72,0x61,0x6d,0x65,0x74,0x65,0x72,0x73,0x5b,0x00,0x6f,0x3b,0x0a,0x07,0x3b,0x0b,0x69,0x0f,0x3b,0x0c,0x5b,0x00,0x6f,0x3b,0x0a,0x07,0x3b,0x0b,0x69,0x2c,0x3b,0x0c,0x5b,0x00,0x6f,0x3b,0x0a,0x07,0x3b,0x0b,0x69,0x00,0x3b,0x0c,0x5b,0x00))
     355("add_actor_ex(579)")
     249(bytes(0x04,0x08,0x6f,0x3a,0x0c,0x52,0x50,0x47,0x3a,0x3a,0x4d,0x45,0x08,0x3a,0x0a,0x40,0x6e,0x61,0x6d,0x65,0x49,0x22,0x0c,0x66,0x61,0x6e,0x66,0x61,0x6c,0x65,0x06,0x3a,0x06,0x45,0x54,0x3a,0x0b,0x40,0x70,0x69,0x74,0x63,0x68,0x69,0x69,0x3a,0x0c,0x40,0x76,0x6f,0x6c,0x75,0x6d,0x65,0x69,0x69))
     ShowMessageFace("",0,0,2,3)
     ShowMessage("Magda joined the party!")
     Wait(60)
     EndEventProcessing()
     0()
    IfPlayerPicksChoice(1,null)
     ShowMessageFace("mob_sanzoku_fc1",0,0,2,4)
     ShowMessage("\\n<Magda>Hmph, don't be selfish...")
     0()
    404()
    0()
   EndIf()
   0()
  EndIf()
  RunCommonEvent(7291)
  0()
 PAGE   2
  // condition: party contains actor #579
  0()



EVENT   23
 PAGE   1
  If(1,1067,0,1,0)
   PictureDisplay(5,"80_serene_st01",0,0,0,0,100,100,0,0)
   PictureMove(5,null,0,0,0,0,100,100,255,0,30,true)
   ShowMessageFace("serene_fc1",0,0,2,1)
   ShowMessage("\\n<Selena>The final remaining treasure of the legendary pirate Captain Selene. Wouldn't you love to get your hands on it?")
   If(0,2149,0)
    ShowMessageFace("bonny_fc1",1,0,2,2)
    ShowMessage("\\n<Bonnie>Captain Selene's treasure!\nOf course we want it!")
    ShowMessageFace("ashel_fc1",0,0,2,3)
    ShowMessage("\\n<Ashel>Milady, can you think of a proverb that applies at a time like this?")
    ShowMessageFace("bonny_fc1",0,0,2,4)
    ShowMessage("\\n<Bonnie>'Finders keepers, losers weepers'!\nDon't quiz me on proverbs right now!")
    If(0,4,0)
     ShowMessageFace("alice_fc5",3,0,2,5)
     ShowMessage("\\n<Alice>(Tamamo always did that to me...)")
     0()
    EndIf()
    0()
   EndIf()
   ShowMessageFace("ruka_fc1",0,0,2,6)
   ShowMessage("\\n<Luka>I'm definitely interested, but how is that connected to the ghost ship?")
   ShowMessageFace("serene_fc1",0,0,2,7)
   ShowMessage("\\n<Selena>Well, first of all...\nI should tell you that I am Captain Selene's granddaughter.")
   If(0,6,0)
    ShowMessageFace("sonia_fc2",2,0,2,8)
    ShowMessage("\\n<Sonya>Wow, Captain Selene had a granddaughter?")
    0()
   Else()
    ShowMessageFace("ruka_fc1",0,0,2,9)
    ShowMessage("\\n<Luka>Wow, Captain Selene had a granddaughter?")
    0()
   EndIf()
   ShowMessageFace("serene_fc1",0,0,2,10)
   ShowMessage("\\n<Selena>Selene gave birth to a girl when she made port in this city. That was my mother, which makes Selene my grandmother.")
   If(4,202,0)
    ShowMessageFace("bonny_fc1",1,0,2,11)
    ShowMessage("\\n<Bonnie>Cool! So you're Selene's descendant!\nI happen to be the descendant of Pirate Queen Roza!")
    ShowMessageFace("serene_fc1",1,0,2,12)
    ShowMessage("\\n<Selena>Fufu, I've heard talk about the Fishy Pirates.\nIt must be fate for us to meet here today.")
    0()
   EndIf()
   ShowMessageFace("serene_fc1",0,0,2,13)
   ShowMessage("\\n<Selena>While she was sailing around the world, my grandmother wrote my grandfather plenty of letters, which he passed down to me.")
   ShowMessageFace("serene_fc1",0,0,2,14)
   ShowMessage("\\n<Selena>I tried tracing Selene's route on this ocean map.\nHer final voyage appeared to have been to an undersea cavern written about in ancient texts.")
   ShowMessageFace("serene_fc1",0,0,2,15)
   ShowMessage("\\n<Selena>She sailed southwest from Gold Port and managed to find it. She wrote in one of the letters how happy she was to get there.")
   ShowMessageFace("ruka_fc1",0,0,2,16)
   ShowMessage("\\n<Luka>So she managed to reach the destination on her final voyage...")
   ShowMessageFace("serene_fc1",0,0,2,17)
   ShowMessage("\\n<Selena>In that underground cavern, she found the treasure she was after: a golden box referred to as the Calamity Box in those ancient texts.")
   ShowMessageFace("serene_fc1",0,0,2,18)
   ShowMessage("\\n<Selena>She wrote that she planned to open the box that night--\nAnd no one heard from anyone on her ship ever again.")
   If(0,6,0)
    ShowMessageFace("sonia_fc2",3,0,2,19)
    ShowMessage("\\n<Sonya>So something happened to her ship after opening the Calamity Box, and they all went missing because of it.")
    0()
   Else()
    ShowMessageFace("ruka_fc1",0,0,2,20)
    ShowMessage("\\n<Luka>So something happened to her ship after opening the Calamity Box, and they all went missing because of it.")
    0()
   EndIf()
   If(4,203,0)
    ShowMessageFace("tatunoko_k_fc1",2,0,2,21)
    ShowMessage("\\n<Tatsuko>I don't like scary stories... *shiver*")
    0()
   EndIf()
   If(0,4,0)
    ShowMessageFace("alice_fc5",3,0,2,22)
    ShowMessage("\\n<Alice>Calamity Box? That's the First Monster Lord...\nNever mind, please continue.")
    0()
   EndIf()
   If(0,5,0)
    ShowMessageFace("iriasu_fc4",2,0,2,23)
    ShowMessage("\\n<Ilias>Your almighty Goddess already knows exactly what happened to those pirates.")
    0()
   EndIf()
   ShowMessageFace("serene_fc1",0,0,2,24)
   ShowMessage("\\n<Selena>Then, not long after...\nA ghost ship flying Selene's pirate flag was spotted.")
   ShowMessageFace("ruka_fc1",0,0,2,25)
   ShowMessage("\\n<Luka>I see... So the ghost ship is Selene's pirate ship. It became a ghost ship because of the Calamity Box.")
   ShowMessageFace("serene_fc1",0,0,2,26)
   ShowMessage("\\n<Selena>The ghost ship sails around a specific area of the ocean, which I've been able to pinpoint from various information sources.")
   ShowMessageFace("serene_fc1",0,0,2,27)
   ShowMessage("\\n<Selena>Her ship was filled with treasure. If we manage to find it, we'll be rich in gold and silver.")
   ShowMessageFace("ruka_fc1",0,0,2,28)
   ShowMessage("\\n<Luka>The treasure doesn't interest me as much as the Calamity Box. We should probably do something about an item that dangerous.")
   If(0,6,0)
    ShowMessageFace("sonia_fc1",5,0,2,29)
    ShowMessage("\\n<Sonya>Yeah, that sounds like a really dangerous thing to have floating around at sea.")
    0()
   EndIf()
   ShowMessageFace("serene_fc1",2,0,2,30)
   ShowMessage("\\n<Selena>.........")
   ShowMessageFace("serene_fc1",0,0,2,31)
   ShowMessage("\\n<Selena>So you're really more concerned about the Calamity Box? I'm relieved to know you're so ethical.")
   ShowMessageFace("serene_fc1",0,0,2,32)
   ShowMessage("\\n<Selena>To be honest, the story about the treasure is just to rope in strong adventurers.")
   ShowMessageFace("serene_fc1",0,0,2,33)
   ShowMessage("\\n<Selena>But it looks like that wasn't necessary with you guys...")
   ShowMessageFace("ruka_fc1",0,0,2,34)
   ShowMessage("\\n<Luka>So that means you're also after the box?")
   ShowMessageFace("serene_fc1",0,0,2,35)
   ShowMessage("\\n<Selena>Yes. Its contents must not get out.")
   ShowMessageFace("serene_fc1",0,0,2,36)
   ShowMessage("\\n<Selena>The calamity that Captain Selene released needs to be returned to the bottom of the sea and resealed.")
   If(0,2149,0)
    ShowMessageFace("bonny_fc1",1,0,2,37)
    ShowMessage("\\n<Bonnie>Okay, the Fishy Pirates will lend a hand! We'll consign that box to oblivion!")
    ShowMessageFace("ashel_fc1",1,0,2,38)
    ShowMessage("\\n<Ashel>Captain Selene's ghost ship and a forbidden box...\nIt's been a long time since my pirate blood was stirred up!")
    ShowMessageFace("bonny_fc1",1,0,2,39)
    ShowMessage("\\n<Bonnie>Ashel, make sure to look before you leap.")
    ShowMessageFace("ashel_fc1",0,0,2,40)
    ShowMessage("\\n<Ashel>Kuh... You are correct, milady...")
    0()
   EndIf()
   ShowMessageFace("serene_fc1",0,0,2,41)
   ShowMessage("\\n<Selena>I've already prepared a ship. I just need you to accompany me as bodyguards.")
   ShowMessageFace("serene_fc1",0,0,2,42)
   ShowMessage("\\n<Selena>Once you're ready, come to the port.\nWe'll depart as soon as you're on board.")
   If(0,4,0)
    ShowMessageFace("alice_fc5",3,0,2,43)
    ShowMessage("\\n<Alice>I'm honestly not crazy about the idea of a ghost ship, but I can't just ignore this after hearing about the Calamity Box.")
    0()
   EndIf()
   If(0,5,0)
    ShowMessageFace("iriasu_fc4",2,0,2,44)
    ShowMessage("\\n<Ilias>The contents of the Calamity Box would wreck the ecosystem... Ghost ships are unpleasant, but I can't ignore it...")
    0()
   EndIf()
   ShowMessageFace("ruka_fc1",0,0,2,45)
   ShowMessage("\\n<Luka>All right, let's do it!\nLet's board that ghost ship and dispose of the Calamity Box!")
   If(4,202,0)
    ShowMessageFace("bonny_fc1",1,0,2,46)
    ShowMessage("\\n<Bonnie>Fishy Pirates, cast off!")
    If(4,53,0)
     ShowMessageFace("slime_fc1",0,0,2,47)
     ShowMessage("\\n<Lime>Aye aye, cap'n!")
     0()
    EndIf()
    0()
   EndIf()
   ChangeVariable(1067,1067,0,0,2)
   PictureClear(5)
   EndEventProcessing()
   0()
  EndIf()
  If(1,1067,0,2,0)
   PictureDisplay(5,"80_serene_st01",0,0,0,0,100,100,0,0)
   PictureMove(5,null,0,0,0,0,100,100,255,0,30,true)
   ShowMessageFace("serene_fc1",0,0,2,48)
   ShowMessage("\\n<Selena>I've already prepared a ship. I just need you to accompany me as bodyguards.")
   ShowMessageFace("serene_fc1",0,0,2,49)
   ShowMessage("\\n<Selena>Once you're ready, come to the port.\nWe'll depart as soon as you're on board.")
   PictureClear(5)
   EndEventProcessing()
   0()
  EndIf()
  0()
 PAGE   2
  // condition: variable 1067 >= 3
  0()
 PAGE   3
  // condition: variable 1067 >= 5
  0()
 PAGE   4
  // condition: variable 1067 >= 6
  0()



EVENT   24
 PAGE   1
  ShowMessageFace("",0,0,2,1)
  ShowMessage("\\n<Soldier>If we're talking about the strongest equipment in the Gold Region, that would be orichalcum equipment. However, they're not products which are generally sold.")
  ShowMessageFace("",0,0,2,2)
  ShowMessage("\\n<Soldier>You'll need to obtain orichalcum ore and ask a blacksmith to forge it. The ore can be gathered from the lava mines in the mountain range west from here.")
  If(1,1064,0,0,0)
   ChangeVariable(1064,1064,0,0,1)
   0()
  EndIf()
  If(8,156)
   EndEventProcessing()
   0()
  Else()
   If(0,4,0)
    ShowMessageFace("alice_fc5",2,0,2,3)
    ShowMessage("\\n<Alice>The best equipment in the region?\nWe should probably prioritize getting our hands on some orichalcum.")
    0()
   EndIf()
   If(0,5,0)
    ShowMessageFace("iriasu_fc4",0,0,2,4)
    ShowMessage("\\n<Ilias>Orichalcum equipment is certainly tempting.\nWe should prioritize that above everything else for now.")
    0()
   EndIf()
   0()
  EndIf()
  0()



EVENT   25
 PAGE   1
  ShowMessageFace("",0,0,2,1)
  ShowMessage("\\n<Innkeeper>It's 10G for a night, would you like to stay?\\$")
  ShowChoices(strings("Yes","No"),2)
  IfPlayerPicksChoice(0,null)
   If(7,10,0)
    125(1,0,10)
    221()
    249(bytes(0x04,0x08,0x6f,0x3a,0x0c,0x52,0x50,0x47,0x3a,0x3a,0x4d,0x45,0x08,0x3a,0x0a,0x40,0x6e,0x61,0x6d,0x65,0x49,0x22,0x08,0x49,0x6e,0x6e,0x06,0x3a,0x06,0x45,0x54,0x3a,0x0b,0x40,0x70,0x69,0x74,0x63,0x68,0x69,0x69,0x3a,0x0c,0x40,0x76,0x6f,0x6c,0x75,0x6d,0x65,0x69,0x69))
    Wait(150)
    314(0,0)
    222()
    0()
   Else()
    ShowMessageFace("",0,0,2,2)
    ShowMessage("\\n<Innkeeper>Oh, you don't have enough money.")
    0()
   EndIf()
   0()
  IfPlayerPicksChoice(1,null)
   0()
  404()
  EndEventProcessing()
  0()



EVENT   26
 PAGE   1
  ShowMessageFace("",0,0,2,1)
  ShowMessage("\\n<Bachelor Soldier>Don't blow up this shop, okay?")
  355("actor_label_jump")
  EndEventProcessing()
  DefineLabel("163")
  ShowMessageFace("lily_fc1",5,0,2,2)
  ShowMessage("\\n<Lily>Sure, then let me drown you in tentacle hell...")
  EndEventProcessing()
  DefineLabel("520")
  ShowMessageFace("lazarus3_fc1",1,0,2,3)
  ShowMessage("\\n<Lazarus>How does 15000G sound?")
  ShowMessageFace("",0,0,2,4)
  ShowMessage("\\n<Bachelor Soldier>I don't have that much...")
  EndEventProcessing()
  0()



EVENT   27
 PAGE   1
  ShowMessageFace("",0,0,2,1)
  ShowMessage("\\n<Adventurer>Orichalcum is renowned for being the hardest metal in the world. However, I've heard a rumor that there's a material which is even stronger than orichalcum...")
  ShowMessageFace("",0,0,2,2)
  ShowMessage("\\n<Adventurer>Apparently, it's an illusory metal that is only circulated among monsters... Whether it's true or not is uncertain, but rumors don't come this far out of idle gossip.")
  0()



EVENT   28
 PAGE   1
  ShowMessageFace("",0,0,2,1)
  ShowMessage("\\n<Soldier>Many of the advanced jobs are said to possess an ability called [Mastery]. It appears to be more powerful than [Dual Wield], but what is Mastery...?")
  0()



EVENT   29
 PAGE   1
  ShowMessageFace("",0,0,2,1)
  ShowMessage("\\n<Mage>I have my eyes set on the advanced magician jobs.\nThe job change item [Magic God's Soul] is managed by the King of Grangold.")
  If(1,1001,0,28,2)
   ShowMessageFace("",0,0,2,2)
   ShowMessage("\\n<Mage>Since the war is over, I've considered requesting an audience with the King of Grangold. But I doubt he'll comply so readily...")
   EndEventProcessing()
   0()
  EndIf()
  If(1,1001,0,29,1)
   ShowMessageFace("",0,0,2,3)
   ShowMessage("\\n<Mage>I still can't get an audience during these times.\nOh, I want to reach the apex of magicians...")
   EndEventProcessing()
   0()
  EndIf()
  0()



EVENT   30
 PAGE   1
  If(0,2196,1)
   205(0,bytes(0x04,0x08,0x6f,0x3a,0x13,0x52,0x50,0x47,0x3a,0x3a,0x4d,0x6f,0x76,0x65,0x52,0x6f,0x75,0x74,0x65,0x09,0x3a,0x0c,0x40,0x72,0x65,0x70,0x65,0x61,0x74,0x46,0x3a,0x0f,0x40,0x73,0x6b,0x69,0x70,0x70,0x61,0x62,0x6c,0x65,0x46,0x3a,0x0a,0x40,0x77,0x61,0x69,0x74,0x54,0x3a,0x0a,0x40,0x6c,0x69,0x73,0x74,0x5b,0x07,0x6f,0x3a,0x15,0x52,0x50,0x47,0x3a,0x3a,0x4d,0x6f,0x76,0x65,0x43,0x6f,0x6d,0x6d,0x61,0x6e,0x64,0x07,0x3a,0x0a,0x40,0x63,0x6f,0x64,0x65,0x69,0x17,0x3a,0x10,0x40,0x70,0x61,0x72,0x61,0x6d,0x65,0x74,0x65,0x72,0x73,0x5b,0x00,0x6f,0x3b,0x0a,0x07,0x3b,0x0b,0x69,0x00,0x3b,0x0c,0x5b,0x00))
   ShowMessageFace("",0,0,2,1)
   ShowMessage("\\n<Rowdy Man>Hey, could those two at the table over there be...")
   ShowMessageFace("",0,0,2,2)
   ShowMessage("\\n<Thug>Don't look them in the eye, you idiot!\nDon't you value your life?!")
   205(0,bytes(0x04,0x08,0x6f,0x3a,0x13,0x52,0x50,0x47,0x3a,0x3a,0x4d,0x6f,0x76,0x65,0x52,0x6f,0x75,0x74,0x65,0x09,0x3a,0x0c,0x40,0x72,0x65,0x70,0x65,0x61,0x74,0x46,0x3a,0x0f,0x40,0x73,0x6b,0x69,0x70,0x70,0x61,0x62,0x6c,0x65,0x46,0x3a,0x0a,0x40,0x77,0x61,0x69,0x74,0x54,0x3a,0x0a,0x40,0x6c,0x69,0x73,0x74,0x5b,0x07,0x6f,0x3a,0x15,0x52,0x50,0x47,0x3a,0x3a,0x4d,0x6f,0x76,0x65,0x43,0x6f,0x6d,0x6d,0x61,0x6e,0x64,0x07,0x3a,0x0a,0x40,0x63,0x6f,0x64,0x65,0x69,0x15,0x3a,0x10,0x40,0x70,0x61,0x72,0x61,0x6d,0x65,0x74,0x65,0x72,0x73,0x5b,0x00,0x6f,0x3b,0x0a,0x07,0x3b,0x0b,0x69,0x00,0x3b,0x0c,0x5b,0x00))
   EndEventProcessing()
   0()
  EndIf()
  If(0,2196,0)
   ShowMessageFace("",0,0,2,3)
   ShowMessage("\\n<Rowdy Man>Monsters are our enemies after all.\nEveryone's realized that now with the Monster Lord's declaration of war.")
   EndEventProcessing()
   0()
  EndIf()
  0()



EVENT   31
 PAGE   1
  ShowMessageFace("",0,0,2,1)
  ShowMessage("\\n<Thug>Rumors are being whispered behind the scenes...\nIt seems Don Father was recently involved in the strategy that brought Grangold to it's surrender.")
  355("actor_label_jump")
  EndEventProcessing()
  DefineLabel("520")
  ShowMessageFace("lazarus3_fc1",1,0,2,2)
  ShowMessage("\\n<Lazarus>Well, we figured rumors about our involvement would get out. They just add to our reputation.")
  EndEventProcessing()
  DefineLabel("522")
  ShowMessageFace("merlin_fc1",0,0,2,3)
  ShowMessage("\\n<Merlin>I welcome the rise in fame, but...\nI'll need to lie low for a bit longer.")
  EndEventProcessing()
  0()



EVENT   32
 PAGE   1
  ShowMessageFace("",0,0,2,1)
  ShowMessage("\\n<Debt Collector>That son of a bitch hopped off to Succubus Village holding his debt payment. If he's taken refuge there, I can't do anything about it.")
  ShowMessageFace("",0,0,2,2)
  ShowMessage("\\n<Debt Collector>Even though he's a debt-ridden criminal, he'll be protected as a member of that village. Nowadays, that place is like a sanctuary for runaways.")
  ShowMessageFace("",0,0,2,3)
  ShowMessage("\\n<Debt Collector>They seem to allot the labor among them as well to carry out farmwork... It appears to be a collective community that accepts anyone who arrives, and won't chase them away.")
  355("actor_label_jump")
  EndEventProcessing()
  DefineLabel("287")
  ShowMessageFace("succubus_fc1",0,0,2,4)
  ShowMessage("\\n<Succubus>I will protect the citizens of Succubus Village, no matter what their circumstances are.")
  EndEventProcessing()
  0()



EVENT   33
 PAGE   1
  ShowMessageFace("",0,0,2,1)
  ShowMessage("\\n<Soldier>Are you aware of an ability called Weapon Mastery?\nMany advanced jobs appear to have a weapon they specialize in.")
  ShowMessageFace("",0,0,2,2)
  ShowMessage("\\n<Soldier>For example, the advanced warrior job Swordmaster has [Sword Mastery]. If they're equipped with a sword, the statistical value of their equipment will increase more than usual.")
  ShowMessageFace("",0,0,2,3)
  ShowMessage("\\n<Soldier>You can draw out the potential of your equipment beyond its limits if you attain an advanced job. Only a few people in this world reach that territory.")
  0()



EVENT   34
 PAGE   1
  ShowMessageFace("",0,0,2,1)
  ShowMessage("\\n<Scholar>Dragons and lamia are closely-related species evolutionary. It may sound surprising, but harpies are also closely related to dragons.")
  355("actor_label_jump")
  EndEventProcessing()
  DefineLabel("41")
  ShowMessageFace("stein_fc2",0,0,2,2)
  ShowMessage("\\n<Promestein>Taxonomically speaking however, it's not surprising at all.")
  EndEventProcessing()
  0()



EVENT   35
 PAGE   1
  ShowMessageFace("slime_fc1",0,0,2,1)
  ShowMessage("\\n<Slime Girl>The fish in this port town are delicious. ♪")
  0()



EVENT   36
 PAGE   1
  ShowMessageFace("slime_fc1",0,0,2,1)
  ShowMessage("\\n<Slime Girl>Fishy! ♪　Fishy! ♪")
  0()



EVENT   37
 PAGE   1
  ShowMessageFace("",0,0,2,1)
  ShowMessage("\\n<Bartender>...What are you ordering?")
  Shop(0,428,0,0,false)
  605(0,429,0,0)
  605(0,430,0,0)
  605(0,431,0,0)
  0()



EVENT   38
 PAGE   1
  If(1,1001,0,29,2)
   ShowMessageFace("",0,0,2,1)
   ShowMessage("\\n<Traveling Warrior>Although the Monster Lord has declared war, people aren't just going to tremble in their sleep. Adventurers from all over the world are going to challenge the Monster Lord to make a name for themselves.")
   ShowMessageFace("",0,0,2,2)
   ShowMessage("\\n<Traveling Warrior>However, the Hellgondo Continent where the Monster Lord's Castle is located cannot be reached from land or sea. So what can we do...?")
   EndEventProcessing()
   0()
  EndIf()
  If(1,1001,0,30,1)
   ShowMessageFace("",0,0,2,3)
   ShowMessage("\\n<Traveling Warrior>The atmosphere has somehow gotten worse in this town.\nIt feels like anti-monster sentiment has been increasing day by day.")
   EndEventProcessing()
   0()
  EndIf()
  0()



EVENT   39
 PAGE   1
  If(1,1086,0,3,0)
   RunCommonEvent(348)
   EndEventProcessing()
   0()
  EndIf()
  RunCommonEvent(340)
  0()
 PAGE   2
  // condition: switch 2196 is ON
  0()



EVENT   40
 PAGE   1
  RunCommonEvent(340)
  0()
 PAGE   2
  // condition: switch 2196 is ON
  0()



EVENT   41
 PAGE   1
  // condition: variable 1067 >= 5
  Wait(30)
  241(bytes(0x04,0x08,0x6f,0x3a,0x0d,0x52,0x50,0x47,0x3a,0x3a,0x42,0x47,0x4d,0x08,0x3a,0x0a,0x40,0x6e,0x61,0x6d,0x65,0x49,0x22,0x10,0x73,0x63,0x65,0x6e,0x65,0x5f,0x63,0x6f,0x6d,0x69,0x31,0x06,0x3a,0x06,0x45,0x54,0x3a,0x0c,0x40,0x76,0x6f,0x6c,0x75,0x6d,0x65,0x69,0x69,0x3a,0x0b,0x40,0x70,0x69,0x74,0x63,0x68,0x69,0x69))
  PictureDisplay(5,"80_serene_st11",0,0,0,0,100,100,0,0)
  PictureMove(5,null,0,0,0,0,100,100,255,0,60,true)
  ShowMessageFace("serene_fc1",3,0,2,1)
  ShowMessage("\\n<Selene>Oh, hello again.")
  If(0,6,0)
   ShowMessageFace("sonia_fc3",2,0,2,2)
   ShowMessage("\\n<Sonya>You're still here!")
   0()
  Else()
   ShowMessageFace("ruka_fc1",0,0,2,3)
   ShowMessage("\\n<Luka>You're still here!")
   0()
  EndIf()
  Wait(30)
  221()
  PictureClear(5)
  Wait(60)
  TeleportPlayer(0,144,14,54,8,2)
  222()
  241(bytes(0x04,0x08,0x6f,0x3a,0x0d,0x52,0x50,0x47,0x3a,0x3a,0x42,0x47,0x4d,0x08,0x3a,0x0a,0x40,0x6e,0x61,0x6d,0x65,0x49,0x22,0x0a,0x6b,0x69,0x6b,0x69,0x32,0x06,0x3a,0x06,0x45,0x54,0x3a,0x0c,0x40,0x76,0x6f,0x6c,0x75,0x6d,0x65,0x69,0x69,0x3a,0x0b,0x40,0x70,0x69,0x74,0x63,0x68,0x69,0x69))
  ShowMessageFace("ruka_fc1",0,0,2,4)
  ShowMessage("\\n<Luka>Did something go wrong...?")
  PictureDisplay(5,"80_serene_st11",0,0,0,0,100,100,0,0)
  PictureMove(5,null,0,0,0,0,100,100,255,0,30,true)
  ShowMessageFace("serene_fc1",3,0,2,5)
  ShowMessage("\\n<Selene>I apparently still have regrets in this world.\nThe only thing I can think of... is that the Beelzebubs are still alive.")
  If(4,202,0)
   ShowMessageFace("bonny_fc1",0,0,2,6)
   ShowMessage("\\n<Bonnie>R-really!?")
   0()
  EndIf()
  If(0,6,0)
   ShowMessageFace("sonia_fc2",2,0,2,7)
   ShowMessage("\\n<Sonya>So they weren't dead after all when they disappeared on the ship...")
   0()
  Else()
   ShowMessageFace("ruka_fc1",0,0,2,8)
   ShowMessage("\\n<Luka>So they weren't dead after all when they disappeared on the ship...")
   0()
  EndIf()
  ShowMessageFace("",0,0,2,9)
  ShowMessage("Their bodies crumbled into countless small flies, but rather than being defeated, they simply escaped.")
  If(0,4,0)
   ShowMessageFace("alice_fc6",0,0,2,10)
   ShowMessage("\\n<Alice>It's too late to return to the ghost ship. We have to assume they're already loose on the world...")
   0()
  EndIf()
  If(0,5,0)
   ShowMessageFace("iriasu_fc4",7,0,2,11)
   ShowMessage("\\n<Ilias>It is too late to return to the ghost ship. We should assume they are already loose on the world.")
   0()
  EndIf()
  If(0,6,0)
   ShowMessageFace("sonia_fc2",4,0,2,12)
   ShowMessage("\\n<Sonya>We don't have a moment to spare, then! We have to find and defeat them!")
   0()
  Else()
   ShowMessageFace("ruka_fc1",0,0,2,13)
   ShowMessage("\\n<Luka>We don't have a moment to spare, then! We have to find and defeat them!")
   0()
  EndIf()
  ShowMessageFace("serene_fc1",3,0,2,14)
  ShowMessage("\\n<Selene>So my worst fear has finally come to life...\nI'll fight with you from now on.")
  PictureClear(5)
  ChangeVariable(1067,1067,0,0,6)
  355("add_actor_ex(536)")
  249(bytes(0x04,0x08,0x6f,0x3a,0x0c,0x52,0x50,0x47,0x3a,0x3a,0x4d,0x45,0x08,0x3a,0x0a,0x40,0x6e,0x61,0x6d,0x65,0x49,0x22,0x0c,0x66,0x61,0x6e,0x66,0x61,0x6c,0x65,0x06,0x3a,0x06,0x45,0x54,0x3a,0x0b,0x40,0x70,0x69,0x74,0x63,0x68,0x69,0x69,0x3a,0x0c,0x40,0x76,0x6f,0x6c,0x75,0x6d,0x65,0x69,0x69))
  ShowMessageFace("",0,0,2,15)
  ShowMessage("Selene has joined the party!")
  Wait(60)
  If(4,202,0)
   ShowMessageFace("bonny_fc1",1,0,2,16)
   ShowMessage("\\n<Bonnie>I never dreamed I'd get to fight alongside Captain Selene. It's a great honor! I'm Captain Bonnie of the Fishy Pirates!")
   ShowMessageFace("serene_fc1",3,0,2,17)
   ShowMessage("\\n<Selene>I suppose I better stop sulking and live up to my reputation then.\nGlad to be aboard, captain.")
   0()
  EndIf()
  ShowMessageFace("serene_fc1",3,0,2,18)
  ShowMessage("\\n<Selene>All right then, let's move!\nWherever they've gone, they're bound to cause a commotion!")
  ShowMessageFace("ruka_fc1",0,0,2,19)
  ShowMessage("\\n<Luka>Yeah, let's hurry and find them!")
  205(-1,bytes(0x04,0x08,0x6f,0x3a,0x13,0x52,0x50,0x47,0x3a,0x3a,0x4d,0x6f,0x76,0x65,0x52,0x6f,0x75,0x74,0x65,0x09,0x3a,0x0c,0x40,0x72,0x65,0x70,0x65,0x61,0x74,0x46,0x3a,0x0f,0x40,0x73,0x6b,0x69,0x70,0x70,0x61,0x62,0x6c,0x65,0x46,0x3a,0x0a,0x40,0x77,0x61,0x69,0x74,0x46,0x3a,0x0a,0x40,0x6c,0x69,0x73,0x74,0x5b,0x0b,0x6f,0x3a,0x15,0x52,0x50,0x47,0x3a,0x3a,0x4d,0x6f,0x76,0x65,0x43,0x6f,0x6d,0x6d,0x61,0x6e,0x64,0x07,0x3a,0x0a,0x40,0x63,0x6f,0x64,0x65,0x69,0x06,0x3a,0x10,0x40,0x70,0x61,0x72,0x61,0x6d,0x65,0x74,0x65,0x72,0x73,0x5b,0x00,0x6f,0x3b,0x0a,0x07,0x3b,0x0b,0x69,0x06,0x3b,0x0c,0x5b,0x00,0x6f,0x3b,0x0a,0x07,0x3b,0x0b,0x69,0x06,0x3b,0x0c,0x5b,0x00,0x6f,0x3b,0x0a,0x07,0x3b,0x0b,0x69,0x06,0x3b,0x0c,0x5b,0x00,0x6f,0x3b,0x0a,0x07,0x3b,0x0b,0x69,0x06,0x3b,0x0c,0x5b,0x00,0x6f,0x3b,0x0a,0x07,0x3b,0x0b,0x69,0x00,0x3b,0x0c,0x5b,0x00))
  Wait(60)
  221()
  Wait(60)
  211(0)
  ChangeSwitch(31,31,1)
  ChangeSwitch(32,32,1)
  TeleportPlayer(0,739,0,0,0,2)
  222()
  EndEventProcessing()
  0()
 PAGE   2
  // condition: variable 1067 >= 6
  0()



EVENT   42
 PAGE   1
  // condition: variable 1067 >= 6
  ShowMessageFace("",0,0,2,1)
  ShowMessage("[Mastery] is an ability attributed to many advanced jobs for weapons they are good with... For example, the [Swordmaster] comes with the [Sword Mastery] ability.")
  ShowMessageFace("",0,0,2,2)
  ShowMessage("Jobs with [Mastery] possess superior skill in handling that weapon. Thus when they are equipped with that weapon, the increase in stats will be much greater than usual.")
  ShowMessageFace("",0,0,2,3)
  ShowMessage("Those who have attained advanced jobs should equip the preferred weapons for their jobs and make use of Mastery. You should never forget this.")
  0()

EVENT   43
 PAGE   1
  250(bytes(0x04,0x08,0x6f,0x3a,0x0c,0x52,0x50,0x47,0x3a,0x3a,0x53,0x45,0x08,0x3a,0x0a,0x40,0x6e,0x61,0x6d,0x65,0x49,0x22,0x0a,0x49,0x74,0x65,0x6d,0x31,0x06,0x3a,0x06,0x45,0x54,0x3a,0x0b,0x40,0x70,0x69,0x74,0x63,0x68,0x69,0x69,0x3a,0x0c,0x40,0x76,0x6f,0x6c,0x75,0x6d,0x65,0x69,0x55))
  ChangeSelfSwitch("A",0)
  ChangeInventory_Item(32,0,0,1)
  0()
 PAGE   2
  // condition: self-switch A is ON
  0()



EVENT   44
 PAGE   1
  250(bytes(0x04,0x08,0x6f,0x3a,0x0c,0x52,0x50,0x47,0x3a,0x3a,0x53,0x45,0x08,0x3a,0x0a,0x40,0x6e,0x61,0x6d,0x65,0x49,0x22,0x0a,0x49,0x74,0x65,0x6d,0x31,0x06,0x3a,0x06,0x45,0x54,0x3a,0x0b,0x40,0x70,0x69,0x74,0x63,0x68,0x69,0x69,0x3a,0x0c,0x40,0x76,0x6f,0x6c,0x75,0x6d,0x65,0x69,0x55))
  ChangeSelfSwitch("A",0)
  ChangeInventory_Item(2,0,0,1)
  0()
 PAGE   2
  // condition: self-switch A is ON
  0()



EVENT   45
 PAGE   1
  250(bytes(0x04,0x08,0x6f,0x3a,0x0c,0x52,0x50,0x47,0x3a,0x3a,0x53,0x45,0x08,0x3a,0x0a,0x40,0x6e,0x61,0x6d,0x65,0x49,0x22,0x0a,0x49,0x74,0x65,0x6d,0x31,0x06,0x3a,0x06,0x45,0x54,0x3a,0x0b,0x40,0x70,0x69,0x74,0x63,0x68,0x69,0x69,0x3a,0x0c,0x40,0x76,0x6f,0x6c,0x75,0x6d,0x65,0x69,0x55))
  ChangeSelfSwitch("A",0)
  ChangeInventory_Item(430,0,0,1)
  0()
 PAGE   2
  // condition: self-switch A is ON
  0()



EVENT   46
 PAGE   1
  250(bytes(0x04,0x08,0x6f,0x3a,0x0c,0x52,0x50,0x47,0x3a,0x3a,0x53,0x45,0x08,0x3a,0x0a,0x40,0x6e,0x61,0x6d,0x65,0x49,0x22,0x0a,0x49,0x74,0x65,0x6d,0x31,0x06,0x3a,0x06,0x45,0x54,0x3a,0x0b,0x40,0x70,0x69,0x74,0x63,0x68,0x69,0x69,0x3a,0x0c,0x40,0x76,0x6f,0x6c,0x75,0x6d,0x65,0x69,0x55))
  ChangeSelfSwitch("A",0)
  ChangeInventory_Item(379,0,0,1)
  0()
 PAGE   2
  // condition: self-switch A is ON
  0()



EVENT   47
 PAGE   1
  250(bytes(0x04,0x08,0x6f,0x3a,0x0c,0x52,0x50,0x47,0x3a,0x3a,0x53,0x45,0x08,0x3a,0x0a,0x40,0x6e,0x61,0x6d,0x65,0x49,0x22,0x0a,0x49,0x74,0x65,0x6d,0x31,0x06,0x3a,0x06,0x45,0x54,0x3a,0x0b,0x40,0x70,0x69,0x74,0x63,0x68,0x69,0x69,0x3a,0x0c,0x40,0x76,0x6f,0x6c,0x75,0x6d,0x65,0x69,0x55))
  ChangeSelfSwitch("A",0)
  ChangeInventory_Item(345,0,0,1)
  0()
 PAGE   2
  // condition: self-switch A is ON
  0()


