// EVENT 0342
Name "Natasha Dialogue"

241(bytes(0x04,0x08,0x6f,0x3a,0x0d,0x52,0x50,0x47,0x3a,0x3a,0x42,0x47,0x4d,0x08,0x3a,0x0a,0x40,0x6e,0x61,0x6d,0x65,0x49,0x22,0x0a,0x62,0x6f,0x73,0x73,0x30,0x06,0x3a,0x06,0x45,0x54,0x3a,0x0c,0x40,0x76,0x6f,0x6c,0x75,0x6d,0x65,0x69,0x69,0x3a,0x0b,0x40,0x70,0x69,0x74,0x63,0x68,0x69,0x69))
ChangeSwitch(2209,2209,0)
PictureDisplay(5,"80_succubus_st03",0,0,0,0,100,100,0,0)
PictureMove(5,null,0,0,0,0,100,100,255,0,30,true)
ShowMessageFace("succubus_fc1",3,0,2,1)
ShowMessage("\\n<Succubus>...I will not hand the man over to you.\nHe came to us for help and is now a member of our community.")
PictureDisplay(5,"80_succubus_st03",0,0,-150,0,100,100,255,0)
PictureDisplay(6,"80_d_succubus_st01",0,0,150,0,100,100,255,0)
ShowMessageFace("d_succubus_fc1",0,0,2,2)
ShowMessage("\\n<Natasha>I just don't get it...\nWhy are you going so far to protect that man?")
ShowMessageFace("succubus_fc1",3,0,2,3)
ShowMessage("\\n<Succubus>I'm protecting my beliefs as the head of this village! We defend our neighbors, no matter who they are!")
ShowMessageFace("d_succubus_fc1",0,0,2,4)
ShowMessage("\\n<Natasha>No matter who they are?\nEven if they're horrible scum of the worst kind?")
ShowMessageFace("succubus_fc1",3,0,2,5)
ShowMessage("\\n<Succubus>If he is a criminal, he'll receive a trial in accordance with the law, but I cannot stand aside and allow vigilante justice!")
If(0,4,0)
 ShowMessageFace("alice_fc5",2,0,2,6)
 ShowMessage("\\n<Alice>The mayor looks to be at a disadvantage...\nHey, stop right there!")
 0()
EndIf()
If(0,5,0)
 ShowMessageFace("iriasu_fc4",7,0,2,7)
 ShowMessage("\\n<Ilias>That man's life looks to be in danger...\nYou, stop right there!")
 0()
EndIf()
PictureClear(5)
PictureClear(6)
Wait(60)
205(22,bytes(0x04,0x08,0x6f,0x3a,0x13,0x52,0x50,0x47,0x3a,0x3a,0x4d,0x6f,0x76,0x65,0x52,0x6f,0x75,0x74,0x65,0x09,0x3a,0x0c,0x40,0x72,0x65,0x70,0x65,0x61,0x74,0x46,0x3a,0x0f,0x40,0x73,0x6b,0x69,0x70,0x70,0x61,0x62,0x6c,0x65,0x46,0x3a,0x0a,0x40,0x77,0x61,0x69,0x74,0x54,0x3a,0x0a,0x40,0x6c,0x69,0x73,0x74,0x5b,0x07,0x6f,0x3a,0x15,0x52,0x50,0x47,0x3a,0x3a,0x4d,0x6f,0x76,0x65,0x43,0x6f,0x6d,0x6d,0x61,0x6e,0x64,0x07,0x3a,0x0a,0x40,0x63,0x6f,0x64,0x65,0x69,0x15,0x3a,0x10,0x40,0x70,0x61,0x72,0x61,0x6d,0x65,0x74,0x65,0x72,0x73,0x5b,0x00,0x6f,0x3b,0x0a,0x07,0x3b,0x0b,0x69,0x00,0x3b,0x0c,0x5b,0x00))
505(bytes(0x04,0x08,0x6f,0x3a,0x15,0x52,0x50,0x47,0x3a,0x3a,0x4d,0x6f,0x76,0x65,0x43,0x6f,0x6d,0x6d,0x61,0x6e,0x64,0x07,0x3a,0x0a,0x40,0x63,0x6f,0x64,0x65,0x69,0x15,0x3a,0x10,0x40,0x70,0x61,0x72,0x61,0x6d,0x65,0x74,0x65,0x72,0x73,0x5b,0x00))
Wait(60)
PictureDisplay(5,"80_d_succubus_st01b",0,0,0,0,100,100,0,0)
PictureMove(5,null,0,0,0,0,100,100,255,0,30,true)
ShowMessageFace("d_succubus_fc1",0,0,2,8)
ShowMessage("\\n<Natasha>Oh, it's you again...\nI already asked you not to try to stop me from getting revenge.")
ShowMessageFace("ruka_fc1",0,0,2,9)
ShowMessage("\\n<Luka>No matter what your reasons are, I can't let you kill him!")
ShowMessageFace("d_succubus_fc1",0,0,2,10)
ShowMessage("\\n<Natasha>So you've come to save him?\nEven though you didn't save me...")
If(0,4,0)
 ShowMessageFace("alice_fc5",2,0,2,11)
 ShowMessage("\\n<Alice>Didn't save you?\nWhat the hell are you talking about?")
 0()
EndIf()
If(0,5,0)
 ShowMessageFace("iriasu_fc4",7,0,2,12)
 ShowMessage("\\n<Ilias>Didn't save you?\nWhat in Heaven's name are you talking about?")
 0()
EndIf()
If(4,163,0)
 ShowMessageFace("lily_fc1",5,0,2,13)
 ShowMessage("\\n<Lily>Oh no, you must be...")
 0()
EndIf()
ShowMessageFace("d_succubus_fc1",0,0,2,14)
ShowMessage("\\n<Natasha>......\nI lived in Luddite Village, at least until Lilith rescued me.")
If(0,4,0)
 ShowMessageFace("alice_fc6",0,0,2,15)
 ShowMessage("\\n<Alice>Luddite? Then you were one of the young girls being abused there?")
 0()
EndIf()
If(0,5,0)
 ShowMessageFace("iriasu_fc4",2,0,2,16)
 ShowMessage("\\n<Ilias>Luddite? Then you were one of the young girls being abused there...")
 0()
EndIf()
241(bytes(0x04,0x08,0x6f,0x3a,0x0d,0x52,0x50,0x47,0x3a,0x3a,0x42,0x47,0x4d,0x08,0x3a,0x0a,0x40,0x6e,0x61,0x6d,0x65,0x49,0x22,0x13,0x73,0x63,0x65,0x6e,0x65,0x5f,0x6f,0x64,0x61,0x79,0x61,0x6b,0x61,0x32,0x06,0x3a,0x06,0x45,0x54,0x3a,0x0c,0x40,0x76,0x6f,0x6c,0x75,0x6d,0x65,0x69,0x69,0x3a,0x0b,0x40,0x70,0x69,0x74,0x63,0x68,0x69,0x69))
ShowMessageFace("d_succubus_fc1",0,0,2,17)
ShowMessage("\\n<Natasha>That's right.\nI was born in that village, raised in that village...\nAnd I went through hell in that village!")
ShowMessageFace("d_succubus_fc1",0,0,2,18)
ShowMessage("\\n<Natasha>Other heroes like you would come and visit. They knew what was going on. They knew, and they all just turned a blind eye and pretended nothing was wrong!")
PictureDisplay(5,"80_d_succubus_st03b",0,0,0,0,100,100,255,0)
ShowMessageFace("d_succubus_fc1",2,0,2,19)
ShowMessage("\\n<Natasha>...No, not all of them. Some actually helped our abusers, and a few even joined in on the fun!\nWho came to help US!? WHO?")
ShowMessageFace("ruka_fc1",0,0,2,20)
ShowMessage("\\n<Luka>.........")
ShowMessageFace("d_succubus_fc1",1,0,2,21)
ShowMessage("\\n<Natasha>Lilith did!\nShe slaughtered those stupid villagers and SAVED ME!")
ShowMessageFace("d_succubus_fc1",1,0,2,22)
ShowMessage("\\n<Natasha>Lilith gave me this power!\nThe power to overthrow oppression and get the revenge I deserve!")
If(0,2097,0)
 If(0,1163,0)
  ShowMessageFace("lily_fc1",2,0,2,23)
  ShowMessage("\\n<Lily>.........")
  0()
 EndIf()
 0()
EndIf()
If(0,2096,0)
 If(0,1167,0)
  ShowMessageFace("lusia_fc1",2,0,2,24)
  ShowMessage("\\n<Lucia>.........")
  0()
 EndIf()
 0()
EndIf()
If(0,4,0)
 ShowMessageFace("alice_fc5",2,0,2,25)
 ShowMessage("\\n<Alice>So the Lilith Sisters turned you into a succubus?\nThen that man...")
 0()
EndIf()
If(0,5,0)
 ShowMessageFace("iriasu_fc4",7,0,2,26)
 ShowMessage("\\n<Ilias>So the Lilith Sisters turned you into a succubus.\nThen that man...")
 0()
EndIf()
ShowMessageFace("d_succubus_fc1",2,0,2,27)
ShowMessage("\\n<Natasha>Yeah, he's a survivor from Luddite.\nHe happened to be away from the village at the time and escaped the slaughter!")
ShowMessageFace("d_succubus_fc1",2,0,2,28)
ShowMessage("\\n<Natasha>He took a special interest in my body...\nI was powerless to resist him as he raped me over and over.")
ShowMessageFace("d_succubus_fc1",2,0,2,29)
ShowMessage("\\n<Natasha>But now it's time for my revenge.\nIf I don't kill him, I can't start my new life!")
If(0,2097,0)
 If(0,1163,0)
  ShowMessageFace("lily_fc1",0,0,2,30)
  ShowMessage("\\n<Lily>...I understand perfectly.")
  ShowMessageFace("lily_fc1",0,0,2,31)
  ShowMessage("\\n<Lily>Do it, then.\nWe'll keep the mayor from interfering.")
  ShowMessageFace("ruka_fc1",0,0,2,32)
  ShowMessage("\\n<Luka>We will...?")
  If(0,6,0)
   ShowMessageFace("sonia_fc3",7,0,2,33)
   ShowMessage("\\n<Sonya>Hold on!\nYou're going to let the man die!?")
   0()
  EndIf()
  ShowMessageFace("lily_fc1",0,0,2,34)
  ShowMessage("\\n<Lily>...It's okay, leave this to me.\nI won't let another tragedy occur in front of me.")
  ShowMessageFace("lily_fc1",0,0,2,35)
  ShowMessage("\\n<Lily>Please, just trust me.\nLet's shut this mayor up for a bit.")
  ShowMessageFace("ruka_fc1",0,0,2,36)
  ShowMessage("\\n<Luka>.........")
  0()
 EndIf()
 0()
EndIf()
If(0,2096,0)
 If(0,1167,0)
  ShowMessageFace("lusia_fc1",2,0,2,37)
  ShowMessage("\\n<Lucia>It's like I'm witnessing my friend's mistakes all over again...\nThat's why I absolutely have to stop you.")
  ShowMessageFace("ruka_fc1",0,0,2,38)
  ShowMessage("\\n<Luka>Yeah, I agree!")
  0()
 EndIf()
 0()
EndIf()
241(bytes(0x04,0x08,0x6f,0x3a,0x0d,0x52,0x50,0x47,0x3a,0x3a,0x42,0x47,0x4d,0x08,0x3a,0x0a,0x40,0x6e,0x61,0x6d,0x65,0x49,0x22,0x0a,0x62,0x6f,0x73,0x73,0x30,0x06,0x3a,0x06,0x45,0x54,0x3a,0x0c,0x40,0x76,0x6f,0x6c,0x75,0x6d,0x65,0x69,0x69,0x3a,0x0b,0x40,0x70,0x69,0x74,0x63,0x68,0x69,0x69))
PictureClear(5)
205(22,bytes(0x04,0x08,0x6f,0x3a,0x13,0x52,0x50,0x47,0x3a,0x3a,0x4d,0x6f,0x76,0x65,0x52,0x6f,0x75,0x74,0x65,0x09,0x3a,0x0c,0x40,0x72,0x65,0x70,0x65,0x61,0x74,0x46,0x3a,0x0f,0x40,0x73,0x6b,0x69,0x70,0x70,0x61,0x62,0x6c,0x65,0x46,0x3a,0x0a,0x40,0x77,0x61,0x69,0x74,0x54,0x3a,0x0a,0x40,0x6c,0x69,0x73,0x74,0x5b,0x07,0x6f,0x3a,0x15,0x52,0x50,0x47,0x3a,0x3a,0x4d,0x6f,0x76,0x65,0x43,0x6f,0x6d,0x6d,0x61,0x6e,0x64,0x07,0x3a,0x0a,0x40,0x63,0x6f,0x64,0x65,0x69,0x16,0x3a,0x10,0x40,0x70,0x61,0x72,0x61,0x6d,0x65,0x74,0x65,0x72,0x73,0x5b,0x00,0x6f,0x3b,0x0a,0x07,0x3b,0x0b,0x69,0x00,0x3b,0x0c,0x5b,0x00))
505(bytes(0x04,0x08,0x6f,0x3a,0x15,0x52,0x50,0x47,0x3a,0x3a,0x4d,0x6f,0x76,0x65,0x43,0x6f,0x6d,0x6d,0x61,0x6e,0x64,0x07,0x3a,0x0a,0x40,0x63,0x6f,0x64,0x65,0x69,0x16,0x3a,0x10,0x40,0x70,0x61,0x72,0x61,0x6d,0x65,0x74,0x65,0x72,0x73,0x5b,0x00))
0()
