// EVENT 0356
Name "Sabasa Invasion Carmilla"

241(bytes(0x04,0x08,0x6f,0x3a,0x0d,0x52,0x50,0x47,0x3a,0x3a,0x42,0x47,0x4d,0x08,0x3a,0x0a,0x40,0x6e,0x61,0x6d,0x65,0x49,0x22,0x0a,0x62,0x6f,0x73,0x73,0x30,0x06,0x3a,0x06,0x45,0x54,0x3a,0x0c,0x40,0x76,0x6f,0x6c,0x75,0x6d,0x65,0x69,0x69,0x3a,0x0b,0x40,0x70,0x69,0x74,0x63,0x68,0x69,0x69))
ShowMessageFace("elisabeth_fc1",0,0,2,1)
ShowMessage("\\n<Elizabeth>My word, what a poor excuse for an army...")
ShowMessageFace("carmilla_fc1",0,0,2,2)
ShowMessage("\\n<Carmilla>Could you at least make this a little fun for us?")
ShowMessageFace("",0,0,2,3)
ShowMessage("\\n<Knight>Tch, they're no ordinary monsters.\nWe have to hold here, though!")
ShowMessageFace("",0,0,2,4)
ShowMessage("\\n<Soldier>We'll protect Sabasa with our lives!")
ShowMessageFace("elisabeth_fc1",0,0,2,5)
ShowMessage("\\n<Elizabeth>Foolish humans. Know your limits!")
212(103,913,false)
ChangeSwitch(2232,2232,0)
ShowMessageFace("",0,0,2,6)
ShowMessage("\\n<Knight>Uwaaaaaaa!!")
ShowMessageFace("elisabeth_fc1",0,0,2,7)
ShowMessage("\\n<Elizabeth>Hmph, this is child's play.")
ShowMessageFace("ruka_fc1",0,0,2,8)
ShowMessage("\\n<Luka>Leave them be! We'll face you instead!")
If(4,45,0)
 ShowMessageFace("alicetromeria_fc1",4,0,2,9)
 ShowMessage("\\n<Alicetroemeria>Can I crash the party as well?")
 0()
EndIf()
205(64,bytes(0x04,0x08,0x6f,0x3a,0x13,0x52,0x50,0x47,0x3a,0x3a,0x4d,0x6f,0x76,0x65,0x52,0x6f,0x75,0x74,0x65,0x09,0x3a,0x0c,0x40,0x72,0x65,0x70,0x65,0x61,0x74,0x46,0x3a,0x0f,0x40,0x73,0x6b,0x69,0x70,0x70,0x61,0x62,0x6c,0x65,0x46,0x3a,0x0a,0x40,0x77,0x61,0x69,0x74,0x46,0x3a,0x0a,0x40,0x6c,0x69,0x73,0x74,0x5b,0x08,0x6f,0x3a,0x15,0x52,0x50,0x47,0x3a,0x3a,0x4d,0x6f,0x76,0x65,0x43,0x6f,0x6d,0x6d,0x61,0x6e,0x64,0x07,0x3a,0x0a,0x40,0x63,0x6f,0x64,0x65,0x69,0x29,0x3a,0x10,0x40,0x70,0x61,0x72,0x61,0x6d,0x65,0x74,0x65,0x72,0x73,0x5b,0x00,0x6f,0x3b,0x0a,0x07,0x3b,0x0b,0x69,0x1e,0x3b,0x0c,0x5b,0x00,0x6f,0x3b,0x0a,0x07,0x3b,0x0b,0x69,0x00,0x3b,0x0c,0x5b,0x00))
505(bytes(0x04,0x08,0x6f,0x3a,0x15,0x52,0x50,0x47,0x3a,0x3a,0x4d,0x6f,0x76,0x65,0x43,0x6f,0x6d,0x6d,0x61,0x6e,0x64,0x07,0x3a,0x0a,0x40,0x63,0x6f,0x64,0x65,0x69,0x29,0x3a,0x10,0x40,0x70,0x61,0x72,0x61,0x6d,0x65,0x74,0x65,0x72,0x73,0x5b,0x00))
505(bytes(0x04,0x08,0x6f,0x3a,0x15,0x52,0x50,0x47,0x3a,0x3a,0x4d,0x6f,0x76,0x65,0x43,0x6f,0x6d,0x6d,0x61,0x6e,0x64,0x07,0x3a,0x0a,0x40,0x63,0x6f,0x64,0x65,0x69,0x1e,0x3a,0x10,0x40,0x70,0x61,0x72,0x61,0x6d,0x65,0x74,0x65,0x72,0x73,0x5b,0x00))
205(75,bytes(0x04,0x08,0x6f,0x3a,0x13,0x52,0x50,0x47,0x3a,0x3a,0x4d,0x6f,0x76,0x65,0x52,0x6f,0x75,0x74,0x65,0x09,0x3a,0x0c,0x40,0x72,0x65,0x70,0x65,0x61,0x74,0x46,0x3a,0x0f,0x40,0x73,0x6b,0x69,0x70,0x70,0x61,0x62,0x6c,0x65,0x46,0x3a,0x0a,0x40,0x77,0x61,0x69,0x74,0x54,0x3a,0x0a,0x40,0x6c,0x69,0x73,0x74,0x5b,0x08,0x6f,0x3a,0x15,0x52,0x50,0x47,0x3a,0x3a,0x4d,0x6f,0x76,0x65,0x43,0x6f,0x6d,0x6d,0x61,0x6e,0x64,0x07,0x3a,0x0a,0x40,0x63,0x6f,0x64,0x65,0x69,0x29,0x3a,0x10,0x40,0x70,0x61,0x72,0x61,0x6d,0x65,0x74,0x65,0x72,0x73,0x5b,0x00,0x6f,0x3b,0x0a,0x07,0x3b,0x0b,0x69,0x1e,0x3b,0x0c,0x5b,0x00,0x6f,0x3b,0x0a,0x07,0x3b,0x0b,0x69,0x00,0x3b,0x0c,0x5b,0x00))
505(bytes(0x04,0x08,0x6f,0x3a,0x15,0x52,0x50,0x47,0x3a,0x3a,0x4d,0x6f,0x76,0x65,0x43,0x6f,0x6d,0x6d,0x61,0x6e,0x64,0x07,0x3a,0x0a,0x40,0x63,0x6f,0x64,0x65,0x69,0x29,0x3a,0x10,0x40,0x70,0x61,0x72,0x61,0x6d,0x65,0x74,0x65,0x72,0x73,0x5b,0x00))
505(bytes(0x04,0x08,0x6f,0x3a,0x15,0x52,0x50,0x47,0x3a,0x3a,0x4d,0x6f,0x76,0x65,0x43,0x6f,0x6d,0x6d,0x61,0x6e,0x64,0x07,0x3a,0x0a,0x40,0x63,0x6f,0x64,0x65,0x69,0x1e,0x3a,0x10,0x40,0x70,0x61,0x72,0x61,0x6d,0x65,0x74,0x65,0x72,0x73,0x5b,0x00))
Wait(60)
PictureDisplay(5,"80_carmilla_st01",0,0,-150,0,100,100,0,0)
PictureDisplay(6,"80_elisabeth_st01",0,0,150,0,100,100,0,0)
PictureMove(5,null,0,0,-150,0,100,100,255,0,30,false)
PictureMove(6,null,0,0,150,0,100,100,255,0,30,true)
ShowMessageFace("elisabeth_fc1",0,0,2,10)
ShowMessage("\\n<Elizabeth>Oh, what have we here? A human hero?")
ShowMessageFace("carmilla_fc1",0,0,2,11)
ShowMessage("\\n<Carmilla>He looks positively delicious. ♪")
ShowMessage("I just have to get a taste of his blood. ♪")
205(75,bytes(0x04,0x08,0x6f,0x3a,0x13,0x52,0x50,0x47,0x3a,0x3a,0x4d,0x6f,0x76,0x65,0x52,0x6f,0x75,0x74,0x65,0x09,0x3a,0x0c,0x40,0x72,0x65,0x70,0x65,0x61,0x74,0x46,0x3a,0x0f,0x40,0x73,0x6b,0x69,0x70,0x70,0x61,0x62,0x6c,0x65,0x46,0x3a,0x0a,0x40,0x77,0x61,0x69,0x74,0x54,0x3a,0x0a,0x40,0x6c,0x69,0x73,0x74,0x5b,0x07,0x6f,0x3a,0x15,0x52,0x50,0x47,0x3a,0x3a,0x4d,0x6f,0x76,0x65,0x43,0x6f,0x6d,0x6d,0x61,0x6e,0x64,0x07,0x3a,0x0a,0x40,0x63,0x6f,0x64,0x65,0x69,0x16,0x3a,0x10,0x40,0x70,0x61,0x72,0x61,0x6d,0x65,0x74,0x65,0x72,0x73,0x5b,0x00,0x6f,0x3b,0x0a,0x07,0x3b,0x0b,0x69,0x00,0x3b,0x0c,0x5b,0x00))
505(bytes(0x04,0x08,0x6f,0x3a,0x15,0x52,0x50,0x47,0x3a,0x3a,0x4d,0x6f,0x76,0x65,0x43,0x6f,0x6d,0x6d,0x61,0x6e,0x64,0x07,0x3a,0x0a,0x40,0x63,0x6f,0x64,0x65,0x69,0x16,0x3a,0x10,0x40,0x70,0x61,0x72,0x61,0x6d,0x65,0x74,0x65,0x72,0x73,0x5b,0x00))
ShowMessageFace("elisabeth_fc1",0,0,2,12)
ShowMessage("\\n<Elizabeth>I'll leave them to you and go on ahead then, Carmilla.")
ShowMessageFace("carmilla_fc1",0,0,2,13)
ShowMessage("\\n<Carmilla>Ufufu, you'd do that for me?\nYou're the best. ♪")
205(75,bytes(0x04,0x08,0x6f,0x3a,0x13,0x52,0x50,0x47,0x3a,0x3a,0x4d,0x6f,0x76,0x65,0x52,0x6f,0x75,0x74,0x65,0x09,0x3a,0x0c,0x40,0x72,0x65,0x70,0x65,0x61,0x74,0x46,0x3a,0x0f,0x40,0x73,0x6b,0x69,0x70,0x70,0x61,0x62,0x6c,0x65,0x46,0x3a,0x0a,0x40,0x77,0x61,0x69,0x74,0x54,0x3a,0x0a,0x40,0x6c,0x69,0x73,0x74,0x5b,0x08,0x6f,0x3a,0x15,0x52,0x50,0x47,0x3a,0x3a,0x4d,0x6f,0x76,0x65,0x43,0x6f,0x6d,0x6d,0x61,0x6e,0x64,0x07,0x3a,0x0a,0x40,0x63,0x6f,0x64,0x65,0x69,0x29,0x3a,0x10,0x40,0x70,0x61,0x72,0x61,0x6d,0x65,0x74,0x65,0x72,0x73,0x5b,0x00,0x6f,0x3b,0x0a,0x07,0x3b,0x0b,0x69,0x15,0x3b,0x0c,0x5b,0x00,0x6f,0x3b,0x0a,0x07,0x3b,0x0b,0x69,0x00,0x3b,0x0c,0x5b,0x00))
505(bytes(0x04,0x08,0x6f,0x3a,0x15,0x52,0x50,0x47,0x3a,0x3a,0x4d,0x6f,0x76,0x65,0x43,0x6f,0x6d,0x6d,0x61,0x6e,0x64,0x07,0x3a,0x0a,0x40,0x63,0x6f,0x64,0x65,0x69,0x29,0x3a,0x10,0x40,0x70,0x61,0x72,0x61,0x6d,0x65,0x74,0x65,0x72,0x73,0x5b,0x00))
505(bytes(0x04,0x08,0x6f,0x3a,0x15,0x52,0x50,0x47,0x3a,0x3a,0x4d,0x6f,0x76,0x65,0x43,0x6f,0x6d,0x6d,0x61,0x6e,0x64,0x07,0x3a,0x0a,0x40,0x63,0x6f,0x64,0x65,0x69,0x15,0x3a,0x10,0x40,0x70,0x61,0x72,0x61,0x6d,0x65,0x74,0x65,0x72,0x73,0x5b,0x00))
ShowMessageFace("elisabeth_fc1",0,0,2,14)
ShowMessage("\\n<Elizabeth>Our Queen is awaiting the good news at Vampire Castle, so don't take too long.")
PictureClear(5)
PictureClear(6)
Wait(60)
250(bytes(0x04,0x08,0x6f,0x3a,0x0c,0x52,0x50,0x47,0x3a,0x3a,0x53,0x45,0x08,0x3a,0x0a,0x40,0x6e,0x61,0x6d,0x65,0x49,0x22,0x0d,0x6d,0x6f,0x6e,0x5f,0x77,0x61,0x72,0x70,0x06,0x3a,0x06,0x45,0x54,0x3a,0x0b,0x40,0x70,0x69,0x74,0x63,0x68,0x69,0x69,0x3a,0x0c,0x40,0x76,0x6f,0x6c,0x75,0x6d,0x65,0x69,0x55))
205(75,bytes(0x04,0x08,0x6f,0x3a,0x13,0x52,0x50,0x47,0x3a,0x3a,0x4d,0x6f,0x76,0x65,0x52,0x6f,0x75,0x74,0x65,0x09,0x3a,0x0c,0x40,0x72,0x65,0x70,0x65,0x61,0x74,0x46,0x3a,0x0f,0x40,0x73,0x6b,0x69,0x70,0x70,0x61,0x62,0x6c,0x65,0x46,0x3a,0x0a,0x40,0x77,0x61,0x69,0x74,0x54,0x3a,0x0a,0x40,0x6c,0x69,0x73,0x74,0x5b,0x07,0x6f,0x3a,0x15,0x52,0x50,0x47,0x3a,0x3a,0x4d,0x6f,0x76,0x65,0x43,0x6f,0x6d,0x6d,0x61,0x6e,0x64,0x07,0x3a,0x0a,0x40,0x63,0x6f,0x64,0x65,0x69,0x2c,0x3a,0x10,0x40,0x70,0x61,0x72,0x61,0x6d,0x65,0x74,0x65,0x72,0x73,0x5b,0x00,0x6f,0x3b,0x0a,0x07,0x3b,0x0b,0x69,0x00,0x3b,0x0c,0x5b,0x00))
505(bytes(0x04,0x08,0x6f,0x3a,0x15,0x52,0x50,0x47,0x3a,0x3a,0x4d,0x6f,0x76,0x65,0x43,0x6f,0x6d,0x6d,0x61,0x6e,0x64,0x07,0x3a,0x0a,0x40,0x63,0x6f,0x64,0x65,0x69,0x2c,0x3a,0x10,0x40,0x70,0x61,0x72,0x61,0x6d,0x65,0x74,0x65,0x72,0x73,0x5b,0x00))
ShowMessageFace("ruka_fc1",0,0,2,15)
ShowMessage("\\n<Luka>Hold it!\n...Tch, she's gone.")
If(0,4,0)
 ShowMessageFace("alice_fc5",2,0,2,16)
 ShowMessage("\\n<Alice>It's better that we don't have to fight them both together. Carmilla and Elizabeth are the Queen Vampire's top two lieutenants.")
 ShowMessageFace("alice_fc5",2,0,2,17)
 ShowMessage("\\n<Alice>They're undoubtedly the ones leading the vampire army. We'll take out Carmilla first and then go after Elizabeth!")
 0()
EndIf()
If(0,5,0)
 ShowMessageFace("iriasu_fc4",7,0,2,18)
 ShowMessage("\\n<Ilias>It's better for us to not fight them both together. Carmilla and Elizabeth are the Queen Vampire's top two lieutenants.")
 ShowMessageFace("iriasu_fc4",7,0,2,19)
 ShowMessage("\\n<Ilias>They are undoubtedly the ones leading the vampire army. Let's kill Carmilla first and then chase down Elizabeth!")
 0()
EndIf()
PictureDisplay(5,"80_carmilla_st01",0,0,0,0,100,100,0,0)
PictureMove(5,null,0,0,0,0,100,100,255,0,30,true)
ShowMessageFace("carmilla_fc1",0,0,2,20)
ShowMessage("\\n<Carmilla>That won't be happening...\nBecause I'm going to suck you down to the last drop. ♪")
PictureDisplay(5,"80_carmilla_st02",0,0,0,0,100,100,255,0)
ShowMessageFace("carmilla_fc1",1,0,2,21)
ShowMessage("\\n<Carmilla>I'll make you come over and over as your blood drains past my lips. ♪\nUfufufufu...")
ShowMessageFace("ruka_fc1",0,0,2,22)
ShowMessage("\\n<Luka>Give her everything we've got!\nWe can't afford to hold back!")
If(4,66,0)
 ShowMessageFace("vgirl_fc1",2,0,2,23)
 ShowMessage("\\n<Vanilla>I'm not crazy about this, but if I have to!")
 0()
EndIf()
PictureClear(5)
SetBattleBGM(bytes(0x04,0x08,0x6f,0x3a,0x0d,0x52,0x50,0x47,0x3a,0x3a,0x42,0x47,0x4d,0x08,0x3a,0x0a,0x40,0x6e,0x61,0x6d,0x65,0x49,0x22,0x0a,0x62,0x6f,0x73,0x73,0x31,0x06,0x3a,0x06,0x45,0x54,0x3a,0x0c,0x40,0x76,0x6f,0x6c,0x75,0x6d,0x65,0x69,0x69,0x3a,0x0b,0x40,0x70,0x69,0x74,0x63,0x68,0x69,0x69))
ChangeSwitch(22,22,0)
Battle(0,812,false,false)
ChangeSwitch(22,22,1)
SetBattleBGM(bytes(0x04,0x08,0x6f,0x3a,0x0d,0x52,0x50,0x47,0x3a,0x3a,0x42,0x47,0x4d,0x08,0x3a,0x0a,0x40,0x6e,0x61,0x6d,0x65,0x49,0x22,0x0b,0x62,0x61,0x74,0x74,0x6c,0x65,0x06,0x3a,0x06,0x45,0x54,0x3a,0x0c,0x40,0x76,0x6f,0x6c,0x75,0x6d,0x65,0x69,0x69,0x3a,0x0b,0x40,0x70,0x69,0x74,0x63,0x68,0x69,0x69))
241(bytes(0x04,0x08,0x6f,0x3a,0x0d,0x52,0x50,0x47,0x3a,0x3a,0x42,0x47,0x4d,0x08,0x3a,0x0a,0x40,0x6e,0x61,0x6d,0x65,0x49,0x22,0x0a,0x6b,0x69,0x6b,0x69,0x33,0x06,0x3a,0x06,0x45,0x54,0x3a,0x0c,0x40,0x76,0x6f,0x6c,0x75,0x6d,0x65,0x69,0x69,0x3a,0x0b,0x40,0x70,0x69,0x74,0x63,0x68,0x69,0x69))
If(4,286,0)
 ShowMessageFace("witchs_fc1",1,0,2,24)
 ShowMessage("\\n<Witch>Sorry, but we don't lose.")
 0()
EndIf()
ShowMessageFace("carmilla_fc1",2,0,2,25)
ShowMessage("\\n<Carmilla>I was defeated...\nI'm sorry, my queen...")
250(bytes(0x04,0x08,0x6f,0x3a,0x0c,0x52,0x50,0x47,0x3a,0x3a,0x53,0x45,0x08,0x3a,0x0a,0x40,0x6e,0x61,0x6d,0x65,0x49,0x22,0x0a,0x57,0x69,0x6e,0x64,0x31,0x06,0x3a,0x06,0x45,0x54,0x3a,0x0b,0x40,0x70,0x69,0x74,0x63,0x68,0x69,0x69,0x3a,0x0c,0x40,0x76,0x6f,0x6c,0x75,0x6d,0x65,0x69,0x55))
ChangeSwitch(2233,2233,0)
ShowMessageFace("ruka_fc1",0,0,2,26)
ShowMessage("\\n<Luka>We did it!\nNow to defeat Elizabeth--")
ShowMessageFace("sara_fc1",3,0,2,27)
ShowMessage("\\n<Sara>Kyaaaa!!")
ShowMessageFace("elisabeth_fc1",1,0,2,28)
ShowMessage("\\n<Elizabeth>Kuku... We've captured the Queen of Sabasa!")
If(0,6,0)
 ShowMessageFace("sonia_fc3",7,0,2,29)
 ShowMessage("\\n<Sonya>Shit, it sounds like they got Sara!")
 0()
Else()
 ShowMessageFace("ruka_fc1",0,0,2,30)
 ShowMessage("\\n<Luka>Crap, it sounds like they got Sara!")
 0()
EndIf()
If(0,4,0)
 ShowMessageFace("alice_fc6",0,0,2,31)
 ShowMessage("\\n<Alice>If anything happens to their queen, the Sabasan army will be routed! We've got to save her!")
 0()
EndIf()
If(0,5,0)
 ShowMessageFace("iriasu_fc4",7,0,2,32)
 ShowMessage("\\n<Ilias>If anything happens to their queen, the Sabasan army will be routed! It's imperative that we rescue her!")
 0()
EndIf()
If(0,6,0)
 ShowMessageFace("sonia_fc1",5,0,2,33)
 ShowMessage("\\n<Sonya>Please be safe, Sara!")
 0()
EndIf()
EndEventProcessing()
0()
