﻿// EVENT 0094
Name "Skill: Play 541-550"

ChangeVariable(11,11,0,2,1,5)
If(1,100,0,541,0)
 If(1,11,0,1,0)
  ShowMessageFace("piha_fc1",0,0,2,1)
  ShowMessage("\\n<Pyhar>Kiiii!!")
  ShowMessageFace("",0,0,2,2)
  ShowMessage("Pyhar is practicing her singing.")
  EndEventProcessing()
  0()
 EndIf()
 If(1,11,0,2,0)
  ShowMessageFace("piha_fc1",0,0,2,3)
  ShowMessage("\\n<Pyhar>Ufufu...ahaha...")
  ShowMessageFace("",0,0,2,4)
  ShowMessage("Pyhar is happily dancing and singing.")
  EndEventProcessing()
  0()
 EndIf()
 If(1,11,0,3,0)
  ShowMessageFace("piha_fc1",0,0,2,5)
  ShowMessage("\\n<Pyhar>Here, a present!")
  ShowMessageFace("",0,0,2,6)
  ShowMessage("Pyhar gives you a gift!")
  250(bytes(0x04,0x08,0x6f,0x3a,0x0c,0x52,0x50,0x47,0x3a,0x3a,0x53,0x45,0x08,0x3a,0x0a,0x40,0x6e,0x61,0x6d,0x65,0x49,0x22,0x0a,0x49,0x74,0x65,0x6d,0x31,0x06,0x3a,0x06,0x45,0x54,0x3a,0x0b,0x40,0x70,0x69,0x74,0x63,0x68,0x69,0x69,0x3a,0x0c,0x40,0x76,0x6f,0x6c,0x75,0x6d,0x65,0x69,0x55))
  ChangeInventory_Item(385,0,0,1)
  ShowMessageFace("",0,0,2,7)
  ShowMessage("You obtain \\ii[385]!")
  EndEventProcessing()
  0()
 EndIf()
 If(1,11,0,4,0)
  ShowMessageFace("piha_fc1",0,0,2,8)
  ShowMessage("\\n<Pyhar>Th-this... g-gift... I...")
  ShowMessageFace("",0,0,2,9)
  ShowMessage("Pyhar gives you a gift!")
  250(bytes(0x04,0x08,0x6f,0x3a,0x0c,0x52,0x50,0x47,0x3a,0x3a,0x53,0x45,0x08,0x3a,0x0a,0x40,0x6e,0x61,0x6d,0x65,0x49,0x22,0x0a,0x49,0x74,0x65,0x6d,0x31,0x06,0x3a,0x06,0x45,0x54,0x3a,0x0b,0x40,0x70,0x69,0x74,0x63,0x68,0x69,0x69,0x3a,0x0c,0x40,0x76,0x6f,0x6c,0x75,0x6d,0x65,0x69,0x55))
  ChangeInventory_Item(386,0,0,1)
  ShowMessageFace("",0,0,2,10)
  ShowMessage("You obtain a \\ii[386]!")
  EndEventProcessing()
  0()
 EndIf()
 If(1,11,0,5,0)
  ShowMessageFace("piha_fc1",0,0,2,11)
  ShowMessage("\\n<Pyhar>I have many talents.\nCome on, get drunk on my amazing song. ♪")
  355("interrupt_skill(3306)")
  EndEventProcessing()
  0()
 EndIf()
 0()
EndIf()
If(1,100,0,542,0)
 If(1,11,0,1,0)
  ShowMessageFace("domeima_fc1",0,0,2,12)
  ShowMessage("\\n<Domaimer>Wa-water...")
  ShowMessageFace("",0,0,2,13)
  ShowMessage("Domaimer is asking for water!")
  EndEventProcessing()
  0()
 EndIf()
 If(1,11,0,2,0)
  ShowMessageFace("domeima_fc1",0,0,2,14)
  ShowMessage("\\n<Domaimer>I caught it.")
  ShowMessageFace("",0,0,2,15)
  ShowMessage("Domaimer gives you a gift!")
  250(bytes(0x04,0x08,0x6f,0x3a,0x0c,0x52,0x50,0x47,0x3a,0x3a,0x53,0x45,0x08,0x3a,0x0a,0x40,0x6e,0x61,0x6d,0x65,0x49,0x22,0x0a,0x49,0x74,0x65,0x6d,0x31,0x06,0x3a,0x06,0x45,0x54,0x3a,0x0b,0x40,0x70,0x69,0x74,0x63,0x68,0x69,0x69,0x3a,0x0c,0x40,0x76,0x6f,0x6c,0x75,0x6d,0x65,0x69,0x55))
  ChangeInventory_Item(322,0,0,1)
  ShowMessageFace("",0,0,2,16)
  ShowMessage("You obtain a \\ii[322]!")
  EndEventProcessing()
  0()
 EndIf()
 If(1,11,0,3,0)
  ShowMessageFace("domeima_fc1",0,0,2,17)
  ShowMessage("\\n<Domaimer>Take this...\nDon't worry about me...")
  ShowMessageFace("",0,0,2,18)
  ShowMessage("Domaimer gives you a gift!")
  250(bytes(0x04,0x08,0x6f,0x3a,0x0c,0x52,0x50,0x47,0x3a,0x3a,0x53,0x45,0x08,0x3a,0x0a,0x40,0x6e,0x61,0x6d,0x65,0x49,0x22,0x0a,0x49,0x74,0x65,0x6d,0x31,0x06,0x3a,0x06,0x45,0x54,0x3a,0x0b,0x40,0x70,0x69,0x74,0x63,0x68,0x69,0x69,0x3a,0x0c,0x40,0x76,0x6f,0x6c,0x75,0x6d,0x65,0x69,0x55))
  ChangeInventory_Item(368,0,0,1)
  ShowMessageFace("",0,0,2,19)
  ShowMessage("You obtain some \\ii[368]!")
  EndEventProcessing()
  0()
 EndIf()
 If(1,11,0,4,0)
  ShowMessageFace("domeima_fc1",0,0,2,20)
  ShowMessage("\\n<Domaimer>Aaaaa-! Aaaaa-!")
  ShowMessageFace("",0,0,2,21)
  ShowMessage("She seems on the verge of death!")
  EndEventProcessing()
  0()
 EndIf()
 If(1,11,0,5,0)
  ShowMessageFace("domeima_fc1",0,0,2,22)
  ShowMessage("\\n<Domaimer>Splash!")
  355("interrupt_skill(2602)")
  EndEventProcessing()
  0()
 EndIf()
 0()
EndIf()
If(1,100,0,543,0)
 If(1,11,0,1,0)
  ShowMessageFace("santos_fc1",0,0,2,23)
  ShowMessage("【さんとす】")
  ShowMessage("……………………")
  ShowMessageFace("",0,0,2,24)
  ShowMessage("サントスの目から感情は窺えない……")
  EndEventProcessing()
  0()
 EndIf()
 If(1,11,0,2,0)
  ShowMessageFace("santos_fc1",0,0,2,25)
  ShowMessage("【さんとす】")
  ShowMessage("……………………")
  ShowMessageFace("",0,0,2,26)
  ShowMessage("さんとすは動きを見せない……")
  EndEventProcessing()
  0()
 EndIf()
 If(1,11,0,3,0)
  ShowMessageFace("santos_fc1",0,0,2,27)
  ShowMessage("【さんとす】")
  ShowMessage("……………………")
  313(0,191,0,11)
  ShowMessageFace("",0,0,2,28)
  ShowMessage("さんとすは目を開けたまま眠っているようだ……")
  EndEventProcessing()
  0()
 EndIf()
 If(1,11,0,4,0)
  ShowMessageFace("santos_fc1",0,0,2,29)
  ShowMessage("【さんとす】")
  ShowMessage("にゃーにゃー。")
  ShowMessageFace("",0,0,2,30)
  ShowMessage("さんとすはネコの振りをしている……")
  EndEventProcessing()
  0()
 EndIf()
 If(1,11,0,5,0)
  ShowMessageFace("santos_fc1",0,0,2,31)
  ShowMessage("【さんとす】")
  ShowMessage("……………………")
  ShowMessageFace("",0,0,2,32)
  ShowMessage("さんとすは不意に大技を繰り出した！")
  355("interrupt_skill(2683)")
  EndEventProcessing()
  0()
 EndIf()
 0()
EndIf()
If(1,100,0,544,0)
 If(1,11,0,1,0)
  ShowMessageFace("mob_maid_fc1",0,0,2,33)
  ShowMessage("\\n<Marie>Fufufuu, nice to meet you...")
  ShowMessageFace("",0,0,2,34)
  ShowMessage("Marie smiles!")
  ShowMessage("...but nothing happens.")
  EndEventProcessing()
  0()
 EndIf()
 If(1,11,0,2,0)
  ShowMessageFace("mob_maid_fc1",0,0,2,35)
  ShowMessage("\\n<Marie>How about some milk?\n...don't ask where I got it.")
  ShowMessageFace("",0,0,2,36)
  ShowMessage("Marie gives you a gift!")
  250(bytes(0x04,0x08,0x6f,0x3a,0x0c,0x52,0x50,0x47,0x3a,0x3a,0x53,0x45,0x08,0x3a,0x0a,0x40,0x6e,0x61,0x6d,0x65,0x49,0x22,0x0a,0x49,0x74,0x65,0x6d,0x31,0x06,0x3a,0x06,0x45,0x54,0x3a,0x0b,0x40,0x70,0x69,0x74,0x63,0x68,0x69,0x69,0x3a,0x0c,0x40,0x76,0x6f,0x6c,0x75,0x6d,0x65,0x69,0x55))
  ChangeInventory_Item(342,0,0,1)
  ShowMessageFace("",0,0,2,37)
  ShowMessage("You obtain \\ii[342]!")
  EndEventProcessing()
  0()
 EndIf()
 If(1,11,0,3,0)
  ShowMessageFace("mob_maid_fc1",0,0,2,38)
  ShowMessage("\\n<Marie>Rub, rub, rub... fufufuu.")
  ShowMessageFace("",0,0,2,39)
  ShowMessage("Marie makes a gesture, like stroking a penis!")
  ShowMessage("Luka reacts unintentionally!")
  313(0,1,0,24)
  ShowMessageFace("",0,0,2,40)
  ShowMessage("Luka has become horny!")
  EndEventProcessing()
  0()
 EndIf()
 If(1,11,0,4,0)
  ShowMessageFace("mob_maid_fc1",0,0,2,41)
  ShowMessage("\\n<Marie>Aaa, split ends...")
  ShowMessageFace("",0,0,2,42)
  ShowMessage("Marie is brushing her hair...")
  EndEventProcessing()
  0()
 EndIf()
 If(1,11,0,5,0)
  ShowMessageFace("mob_maid_fc1",0,0,2,43)
  ShowMessage("\\n<Marie>Fufufuu...")
  355("interrupt_skill(3296)")
  EndEventProcessing()
  0()
 EndIf()
 0()
EndIf()
If(1,100,0,545,0)
 If(1,11,0,1,0)
  ShowMessageFace("mob_murabito1_fc1",0,0,2,44)
  ShowMessage("\\n<Eri>I might be famous one day...")
  ShowMessageFace("",0,0,2,45)
  ShowMessage("Eri is practicing her signature.")
  EndEventProcessing()
  0()
 EndIf()
 If(1,11,0,2,0)
  ShowMessageFace("mob_murabito1_fc1",0,0,2,46)
  ShowMessage("\\n<Eri>Please eat this...")
  ShowMessageFace("",0,0,2,47)
  ShowMessage("Eri gives you a gift!")
  250(bytes(0x04,0x08,0x6f,0x3a,0x0c,0x52,0x50,0x47,0x3a,0x3a,0x53,0x45,0x08,0x3a,0x0a,0x40,0x6e,0x61,0x6d,0x65,0x49,0x22,0x0a,0x49,0x74,0x65,0x6d,0x31,0x06,0x3a,0x06,0x45,0x54,0x3a,0x0b,0x40,0x70,0x69,0x74,0x63,0x68,0x69,0x69,0x3a,0x0c,0x40,0x76,0x6f,0x6c,0x75,0x6d,0x65,0x69,0x55))
  ChangeInventory_Item(343,0,0,1)
  ShowMessageFace("",0,0,2,48)
  ShowMessage("You obtain \\ii[343]!")
  EndEventProcessing()
  0()
 EndIf()
 If(1,11,0,3,0)
  ShowMessageFace("mob_murabito1_fc1",0,0,2,49)
  ShowMessage("\\n<Eri>Like this... *suck* *suck* *slurp*")
  ShowMessageFace("",0,0,2,50)
  ShowMessage("Eri sucks on her finger, wet and loudly!")
  ShowMessage("Luka unintentionally reacts!")
  313(0,1,0,24)
  ShowMessageFace("",0,0,2,51)
  ShowMessage("Luka has become horny!")
  EndEventProcessing()
  0()
 EndIf()
 If(1,11,0,4,0)
  ShowMessageFace("mob_murabito1_fc1",0,0,2,52)
  ShowMessage("\\n<Eri>Good luck everyone!")
  355("interrupt_skill(3300)")
  EndEventProcessing()
  0()
 EndIf()
 If(1,11,0,5,0)
  ShowMessageFace("dog_fc1",0,0,2,53)
  ShowMessage("\\n<Spot>Woof, woof, I'm hungry..")
  ShowMessageFace("mob_murabito1_fc1",0,0,2,54)
  ShowMessage("\\n<Eri>Oh my... here, help yourself.")
  ShowMessageFace("",0,0,2,55)
  ShowMessage("Eri is giving food to a passing dog girl.")
  EndEventProcessing()
  0()
 EndIf()
 0()
EndIf()
If(1,100,0,546,0)
 If(1,11,0,1,0)
  ShowMessageFace("mob_hurou_fc1",0,0,2,56)
  ShowMessage("\\n<Stella>Ah, a mushroom is growing...")
  ShowMessageFace("",0,0,2,57)
  ShowMessage("Stella has picked a mushroom...")
  250(bytes(0x04,0x08,0x6f,0x3a,0x0c,0x52,0x50,0x47,0x3a,0x3a,0x53,0x45,0x08,0x3a,0x0a,0x40,0x6e,0x61,0x6d,0x65,0x49,0x22,0x0a,0x49,0x74,0x65,0x6d,0x31,0x06,0x3a,0x06,0x45,0x54,0x3a,0x0b,0x40,0x70,0x69,0x74,0x63,0x68,0x69,0x69,0x3a,0x0c,0x40,0x76,0x6f,0x6c,0x75,0x6d,0x65,0x69,0x55))
  ChangeInventory_Item(443,0,0,1)
  ShowMessageFace("",0,0,2,58)
  ShowMessage("You obtain a \\ii[443]!")
  EndEventProcessing()
  0()
 EndIf()
 If(1,11,0,2,0)
  ShowMessageFace("mob_hurou_fc1",0,0,2,59)
  ShowMessage("\\n<Stella>What's that? ...kyaaa!!")
  ShowMessageFace("",0,0,2,60)
  ShowMessage("Stella has discovered a skeleton.")
  250(bytes(0x04,0x08,0x6f,0x3a,0x0c,0x52,0x50,0x47,0x3a,0x3a,0x53,0x45,0x08,0x3a,0x0a,0x40,0x6e,0x61,0x6d,0x65,0x49,0x22,0x0a,0x49,0x74,0x65,0x6d,0x31,0x06,0x3a,0x06,0x45,0x54,0x3a,0x0b,0x40,0x70,0x69,0x74,0x63,0x68,0x69,0x69,0x3a,0x0c,0x40,0x76,0x6f,0x6c,0x75,0x6d,0x65,0x69,0x55))
  ChangeInventory_Item(444,0,0,1)
  ShowMessageFace("",0,0,2,61)
  ShowMessage("You obtain a \\ii[444]!")
  EndEventProcessing()
  0()
 EndIf()
 If(1,11,0,3,0)
  ShowMessageFace("mob_hurou_fc1",0,0,2,62)
  ShowMessage("\\n<Stella>So hungry...")
  ShowMessageFace("",0,0,2,63)
  ShowMessage("Stella has stolen some food...")
  EndEventProcessing()
  0()
 EndIf()
 If(1,11,0,4,0)
  ShowMessageFace("mob_hurou_fc1",0,0,2,64)
  ShowMessage("\\n<Stella>Stay away!")
  355("interrupt_skill(3308)")
  EndEventProcessing()
  0()
 EndIf()
 If(1,11,0,5,0)
  ShowMessageFace("mob_hurou_fc1",0,0,2,65)
  ShowMessage("\\n<Stella>Pick me please...")
  ShowMessageFace("",0,0,2,66)
  ShowMessage("Stella tried to appeal to someone...")
  ShowMessage("But no one was looking.")
  EndEventProcessing()
  0()
 EndIf()
 0()
EndIf()
If(1,100,0,547,0)
 If(1,11,0,1,0)
  ShowMessageFace("dondaria_fc1",0,0,2,67)
  ShowMessage("\\n<Don Dahlia>You, do you have any idea who I am?")
  355("interrupt_skill(3312)")
  EndEventProcessing()
  0()
 EndIf()
 If(1,11,0,2,0)
  ShowMessageFace("dondaria_fc1",0,0,2,68)
  ShowMessage("\\n<Don Dahlia>Hey look... puff puff, how 'bout it?")
  ShowMessageFace("",0,0,2,69)
  ShowMessage("Don Dahlia invitingly shakes her large breasts!")
  ShowMessage("Luka unintentionally reacts!")
  313(0,1,0,24)
  ShowMessageFace("",0,0,2,70)
  ShowMessage("Luka has become horny!")
  EndEventProcessing()
  0()
 EndIf()
 If(1,11,0,3,0)
  ShowMessageFace("dondaria_fc1",0,0,2,71)
  ShowMessage("\\n<Don Dahlia>Hey! Hey! Heey!")
  355("interrupt_skill(3312)")
  EndEventProcessing()
  0()
 EndIf()
 If(1,11,0,4,0)
  ShowMessageFace("dondaria_fc1",0,0,2,72)
  ShowMessage("\\n<Don Dahlia>If I knock off Don Father, I will be queen of the underworld...")
  ShowMessageFace("",0,0,2,73)
  ShowMessage("Don Dahlia is thinking evil thoughts...")
  EndEventProcessing()
  0()
 EndIf()
 If(1,11,0,5,0)
  ShowMessageFace("dondaria_fc1",0,0,2,74)
  ShowMessage("\\n<Don Dahlia>That Mini... I wonder if she is eating properly?")
  ShowMessageFace("",0,0,2,75)
  ShowMessage("...Don Dahlia is a bit worried.")
  EndEventProcessing()
  0()
 EndIf()
 0()
EndIf()
If(1,100,0,548,0)
 If(1,11,0,1,0)
  ShowMessageFace("mob_bunny1_fc1",0,0,2,76)
  ShowMessage("\\n<Bunny-chan>Here, it's a special gift. ♪")
  250(bytes(0x04,0x08,0x6f,0x3a,0x0c,0x52,0x50,0x47,0x3a,0x3a,0x53,0x45,0x08,0x3a,0x0a,0x40,0x6e,0x61,0x6d,0x65,0x49,0x22,0x0a,0x49,0x74,0x65,0x6d,0x31,0x06,0x3a,0x06,0x45,0x54,0x3a,0x0b,0x40,0x70,0x69,0x74,0x63,0x68,0x69,0x69,0x3a,0x0c,0x40,0x76,0x6f,0x6c,0x75,0x6d,0x65,0x69,0x55))
  355("gain_coin(20)")
  ShowMessageFace("",0,0,2,77)
  ShowMessage("You obtain 20 coins!")
  EndEventProcessing()
  0()
 EndIf()
 If(1,11,0,2,0)
  ShowMessageFace("mob_bunny1_fc1",0,0,2,78)
  ShowMessage("\\n<Bunny-chan>I'm too tired to play, I'll sleep instead. ♪")
  313(0,548,0,11)
  ShowMessageFace("",0,0,2,79)
  ShowMessage("Bunny-chan has fallen asleep!")
  EndEventProcessing()
  0()
 EndIf()
 If(1,11,0,3,0)
  ShowMessageFace("mob_bunny1_fc1",0,0,2,80)
  ShowMessage("\\n<Bunny-chan>That's it! Hustle! Hustle!")
  355("interrupt_skill(2047)")
  EndEventProcessing()
  0()
 EndIf()
 If(1,11,0,4,0)
  ShowMessageFace("mob_bunny1_fc1",0,0,2,81)
  ShowMessage("\\n<Bunny-chan>Bunny-chan flaaash! ☆")
  355("interrupt_skill(3302)")
  EndEventProcessing()
  0()
 EndIf()
 If(1,11,0,5,0)
  ShowMessageFace("mob_bunny1_fc1",0,0,2,82)
  ShowMessage("\\n<Bunny-chan>Stylish Sparkle! ☆")
  355("interrupt_skill(2081)")
  EndEventProcessing()
  0()
 EndIf()
 0()
EndIf()
If(1,100,0,549,0)
 If(1,11,0,1,0)
  ShowMessageFace("mob_touzoku_fc1",0,0,2,83)
  ShowMessage("\\n<Louise>This is a thief's hidden talent!")
  355("interrupt_skill(1753)")
  EndEventProcessing()
  0()
 EndIf()
 If(1,11,0,2,0)
  ShowMessageFace("mob_touzoku_fc1",0,0,2,84)
  ShowMessage("\\n<Louise>Here ya go, a present!")
  ShowMessageFace("",0,0,2,85)
  ShowMessage("Louise gives you a gift!")
  250(bytes(0x04,0x08,0x6f,0x3a,0x0c,0x52,0x50,0x47,0x3a,0x3a,0x53,0x45,0x08,0x3a,0x0a,0x40,0x6e,0x61,0x6d,0x65,0x49,0x22,0x0a,0x49,0x74,0x65,0x6d,0x31,0x06,0x3a,0x06,0x45,0x54,0x3a,0x0b,0x40,0x70,0x69,0x74,0x63,0x68,0x69,0x69,0x3a,0x0c,0x40,0x76,0x6f,0x6c,0x75,0x6d,0x65,0x69,0x55))
  ChangeInventory_Item(337,0,0,1)
  ShowMessageFace("",0,0,2,86)
  ShowMessage("You obtain \\ii[337]!")
  EndEventProcessing()
  0()
 EndIf()
 If(1,11,0,3,0)
  ShowMessageFace("mob_touzoku_fc1",0,0,2,87)
  ShowMessage("\\n<Louise>I will become famous among thieves, even I will have my day in the spotlight...")
  ShowMessageFace("",0,0,2,88)
  ShowMessage("...Louise is practicing her signature.")
  EndEventProcessing()
  0()
 EndIf()
 If(1,11,0,4,0)
  ShowMessageFace("mob_touzoku_fc1",0,0,2,89)
  ShowMessage("\\n<Louise>...bye!")
  ShowMessageFace("",0,0,2,90)
  ShowMessage("Louise ran away!")
  ShowMessage("...but she didn't know the way and came straight back.")
  EndEventProcessing()
  0()
 EndIf()
 If(1,11,0,5,0)
  ShowMessageFace("mob_touzoku_fc1",0,0,2,91)
  ShowMessage("\\n<Louise>Shazam! Take this!")
  355("interrupt_skill(3308)")
  EndEventProcessing()
  0()
 EndIf()
 0()
EndIf()
If(1,100,0,550,0)
 If(1,11,0,1,0)
  ShowMessageFace("mob_kakutou_fc1",0,0,2,92)
  ShowMessage("\\n<Mei-Lin>Whooacchoo!")
  ShowMessageFace("",0,0,2,93)
  ShowMessage("Mei-Lin threatens the opponents!")
  ShowMessage("...but nothing happened.")
  EndEventProcessing()
  0()
 EndIf()
 If(1,11,0,2,0)
  ShowMessageFace("mob_kakutou_fc1",0,0,2,94)
  ShowMessage("\\n<Mei-Lin>Look! I brought a duck and leek!")
  250(bytes(0x04,0x08,0x6f,0x3a,0x0c,0x52,0x50,0x47,0x3a,0x3a,0x53,0x45,0x08,0x3a,0x0a,0x40,0x6e,0x61,0x6d,0x65,0x49,0x22,0x0a,0x49,0x74,0x65,0x6d,0x31,0x06,0x3a,0x06,0x45,0x54,0x3a,0x0b,0x40,0x70,0x69,0x74,0x63,0x68,0x69,0x69,0x3a,0x0c,0x40,0x76,0x6f,0x6c,0x75,0x6d,0x65,0x69,0x55))
  ChangeInventory_Item(315,0,0,1)
  ChangeInventory_Item(330,0,0,1)
  ShowMessageFace("",0,0,2,95)
  ShowMessage("You obtain a \\ii[315] and a \\ii[330]!")
  EndEventProcessing()
  0()
 EndIf()
 If(1,11,0,3,0)
  ShowMessageFace("mob_kakutou_fc1",0,0,2,96)
  ShowMessage("\\n<Mei-Lin>Haaaa!!")
  355("interrupt_skill(3099)")
  EndEventProcessing()
  0()
 EndIf()
 If(1,11,0,4,0)
  ShowMessageFace("mob_kakutou_fc1",0,0,2,97)
  ShowMessage("\\n<Mei-Lin>This kick will send you flying to the next world!")
  355("interrupt_skill(1401)")
  EndEventProcessing()
  0()
 EndIf()
 If(1,11,0,5,0)
  ShowMessageFace("mob_kakutou_fc1",0,0,2,98)
  ShowMessage("\\n<Mei-Lin>whooacchoo... ouch!")
  355("interrupt_skill(3293)")
  EndEventProcessing()
  0()
 EndIf()
 0()
EndIf()
0()
