// EVENT 4578
Name "Saki 3"

If(0,25,1)
 221()
 PictureClear(5)
 PictureClear(6)
 ShowMessageFace("",0,0,2,0)
 ShowMessage("......")
 242(2)
 Wait(120)
 241(bytes(0x04,0x08,0x6f,0x3a,0x0d,0x52,0x50,0x47,0x3a,0x3a,0x42,0x47,0x4d,0x08,0x3a,0x0a,0x40,0x6e,0x61,0x6d,0x65,0x49,0x22,0x0c,0x63,0x61,0x73,0x74,0x6c,0x65,0x36,0x06,0x3a,0x06,0x45,0x54,0x3a,0x0c,0x40,0x76,0x6f,0x6c,0x75,0x6d,0x65,0x69,0x69,0x3a,0x0b,0x40,0x70,0x69,0x74,0x63,0x68,0x69,0x69))
 EndEventProcessing()
 0()
EndIf()
PictureDisplay(5,"80_saki_st01",0,0,0,0,100,100,255,0)
ShowMessageFace("saki_fc1",0,0,2,1)
ShowMessage("\\n<Saki>Saki bought a new outfit...\nCan you give some feedback?")
ShowMessageFace("",0,0,2,2)
ShowMessage("\\n<Luka>Ok, sure.")
ShowMessageFace("saki_fc1",0,0,2,3)
ShowMessage("\\n<Saki>Alright then, come to Saki's room☆")
ShowMessageFace("",0,0,2,4)
ShowMessage("I follow Saki to her room...")
221()
PictureDisplay(1,"bg195",0,0,0,0,100,100,255,0)
PictureDisplay(5,"ev_saki_hc01",0,0,0,0,100,100,255,0)
222()
241(bytes(0x04,0x08,0x6f,0x3a,0x0d,0x52,0x50,0x47,0x3a,0x3a,0x42,0x47,0x4d,0x08,0x3a,0x0a,0x40,0x6e,0x61,0x6d,0x65,0x49,0x22,0x09,0x65,0x72,0x6f,0x31,0x06,0x3a,0x06,0x45,0x54,0x3a,0x0c,0x40,0x76,0x6f,0x6c,0x75,0x6d,0x65,0x69,0x69,0x3a,0x0b,0x40,0x70,0x69,0x74,0x63,0x68,0x69,0x69))
ShowMessageFace("saki_fc1",0,0,2,5)
ShowMessage("\\n<Saki>Look, look~♪　It's Cheerleader style~♪\nIt's cute, isn't it...?")
ShowMessageFace("",0,0,2,6)
ShowMessage("\\n<Luka>......")
ShowMessageFace("",0,0,2,7)
ShowMessage("Saki presses her butt out towards me, showing off her outfit.")
ShowMessage("For some reason, she had also stripped me naked.")
PictureDisplay(5,"ev_saki_hc02",0,0,0,0,100,100,255,0)
ShowMessageFace("saki_fc1",0,0,2,8)
ShowMessage("\\n<Saki>Ehehe, well?\nIs it irresistable...?")
ShowMessageFace("",0,0,2,9)
ShowMessage("Saki shakes her ass side to side, as if tempting me.")
ShowMessage("Sadly, my penis is all too happy to respond...")
PictureDisplay(5,"ev_saki_he1",0,0,0,0,100,100,255,0)
ShowMessageFace("saki_fc1",0,0,2,10)
ShowMessage("\\n<Saki>Arere, are you in a lewd mood?\nJust for today, you can put it in.☆")
ShowMessageFace("",0,0,2,11)
ShowMessage("Saki lowers her panties, showing off her bare ass.")
ShowMessage("My enlarged penis is trembling, eager to touch...")
ShowChoices(strings("Stick it in","Just like"),0)
IfPlayerPicksChoice(0,"Stick it in")
 ShowMessageFace("saki_fc1",0,0,2,12)
 ShowMessage("\\n<Saki>Are you sure you want to put it in?\nIt feels super good inside Saki, you know? ♪")
 ShowMessageFace("saki_fc1",0,0,2,13)
 ShowMessage("\\n<Saki>Everyone is so thrilled when they put it in.\nAs soon as they stick it in, they scream.")
 ShowMessageFace("saki_fc1",0,0,2,14)
 ShowMessage("\\n<Saki>Saki makes it nice and tight, squeezing them...\nEveryone tries to hold on longer to keep feeling it.")
 ShowMessageFace("saki_fc1",0,0,2,15)
 ShowMessage("\\n<Saki>They try to hold back, so Saki goes squueeeezeee...\nAnd it's an instant kill.☆")
 ShowMessageFace("saki_fc1",0,0,2,16)
 ShowMessage("\\n<Saki>Everyone tries to hold on, but it's always over fast.\nSaki absolutely looooves that ashamed face they make at that time.♪")
 ShowMessageFace("saki_fc1",0,0,2,17)
 ShowMessage("\\n<Saki>Well? Do you still want to stick it in?\nSaki's pussy, that breaks men's pride?")
 ShowMessageFace("",0,0,2,18)
 ShowMessage("\\n<Luka>I-I want to...")
 ShowMessageFace("",0,0,2,19)
 ShowMessage("After hearing her story, I can't hold myself back.")
 ShowMessage("Pre-come is already leaking from my tip...")
 ShowMessageFace("saki_fc1",0,0,2,20)
 ShowMessage("\\n<Saki>Well then, put it in.☆")
 ShowMessageFace("",0,0,2,21)
 ShowMessage("\\n<Luka>Unnngh...")
 PictureDisplay(5,"ev_saki_he5",0,0,0,0,100,100,255,0)
 ShowMessageFace("",0,0,2,22)
 ShowMessage("Jumping forward, I cling to her ass like a dog.")
 ShowMessage("I press my glans to her slit.")
 ShowMessageFace("",0,0,2,23)
 ShowMessage("Already feeling her warmth, it feels good enough to melt.")
 ShowMessage("Pushing forward, I press myself inside her...")
 245(bytes(0x04,0x08,0x6f,0x3a,0x0d,0x52,0x50,0x47,0x3a,0x3a,0x42,0x47,0x53,0x08,0x3a,0x0a,0x40,0x6e,0x61,0x6d,0x65,0x49,0x22,0x1e,0x6d,0x6f,0x6e,0x5f,0x68,0x73,0x65,0x61,0x6e,0x30,0x32,0x5f,0x69,0x6e,0x6e,0x65,0x72,0x77,0x6f,0x72,0x6b,0x73,0x5f,0x61,0x32,0x06,0x3a,0x06,0x45,0x54,0x3a,0x0c,0x40,0x76,0x6f,0x6c,0x75,0x6d,0x65,0x69,0x69,0x3a,0x0b,0x40,0x70,0x69,0x74,0x63,0x68,0x69,0x69))
 PictureDisplay(5,"ev_saki_he6",0,0,0,0,100,100,255,0)
 ShowMessageFace("",0,0,2,24)
 ShowMessage("\\n<Luka>Ah, Nnngh...")
 ShowMessageFace("",0,0,2,25)
 ShowMessage("I slowly push into her, spreading her opening apart.")
 ShowMessage("Her soft, hot flesh squeezes my glans as I enter.")
 ShowMessageFace("",0,0,2,26)
 ShowMessage("Inviting a sweet weakness, her walls press against the neck of my penis.")
 ShowMessage("Just from insertion, I'm already pushed into a corner.")
 ShowMessageFace("saki_fc1",0,0,2,27)
 ShowMessage("\\n<Saki>Aha, you put it all the way in. ♪")
 ShowMessageFace("",0,0,2,28)
 ShowMessage("\\n<Luka>Ah, Aaah...")
 ShowMessageFace("",0,0,2,29)
 ShowMessage("As soon as my glans presses her deepest part...")
 RunCommonEvent(104)
 PictureDisplay(5,"ev_saki_he7",0,0,0,0,100,100,255,0)
 RunCommonEvent(105)
 ShowMessageFace("",0,0,2,30)
 ShowMessage("\\n<Luka>Nnngh...")
 ShowMessageFace("",0,0,2,31)
 ShowMessage("I explode inside Saki's vagina.")
 ShowMessage("An intense pleasure, more than I can take, just from pushing inside her.")
 ShowMessageFace("saki_fc1",0,0,2,32)
 ShowMessage("\\n<Saki>Ahaha, how embarassing~♪\nComing right after sticking it in~♪")
 ShowMessageFace("",0,0,2,33)
 ShowMessage("Saki ridicules my quick orgasm.")
 ShowMessage("But as she laughs, my penis is still twitching inside her.")
 ShowMessageFace("saki_fc1",0,0,2,34)
 ShowMessage("\\n<Saki>Since you're so pitiful, Saki will comfort you.\nSaki will make it nice and tight. ☆")
 ShowMessageFace("",0,0,2,35)
 ShowMessage("\\n<Luka>Ah, Aaaah...!")
 ShowMessageFace("",0,0,2,36)
 ShowMessage("Her insides suddenly shrink as she squeezes, bringing a powerful new stimulus with it.")
 ShowMessageFace("saki_fc1",0,0,2,37)
 ShowMessage("\\n<Saki>Hora, squeeze squeeze~♪\nWell? Can you hold on?")
 ShowMessageFace("",0,0,2,38)
 ShowMessage("\\n<Luka>Ah... Huaaa...!")
 ShowMessageFace("",0,0,2,39)
 ShowMessage("Almost like a living being, it clamps down on me.")
 ShowMessage("A heavenly ecstasy fills me as she presses down on my penis.")
 ShowMessageFace("",0,0,2,40)
 ShowMessage("Squeezing me in a pulsing rhythm, I could come again any second.")
 ShowMessageFace("",0,0,2,41)
 ShowMessage("\\n<Luka>T-This is... I'm coming again...")
 ShowMessageFace("saki_fc1",0,0,2,42)
 ShowMessage("\\n<Saki>Saki said when she makes it tight, it's an instant kill.\nYou remember, right? Well then...☆")
 ShowMessageFace("",0,0,2,43)
 ShowMessage("From the base to the tip, an overwhelming pressure assaults me.")
 ShowMessage("I moan in bliss as her soft flesh envelopes me.")
 ShowMessageFace("",0,0,2,44)
 ShowMessage("\\n<Luka>Ah, Aaaah...!!")
 RunCommonEvent(104)
 RunCommonEvent(105)
 ShowMessageFace("",0,0,2,45)
 ShowMessage("I come inside her again.")
 ShowMessage("Unable to endure it, I came twice so quickly...")
 246(2)
 PictureDisplay(5,"ev_saki_he8",0,0,0,0,100,100,255,0)
 ShowMessageFace("",0,0,2,46)
 ShowMessage("\\n<Luka>Nnngh...")
 ShowMessageFace("saki_fc1",0,0,2,47)
 ShowMessage("\\n<Saki>Ahaha, Saki's vagina is all messy.☆\nAre you satisfied with how much you let out...?")
 ShowMessageFace("",0,0,2,48)
 ShowMessage("\\n<Luka>......")
 ShowMessageFace("",0,0,2,49)
 ShowMessage("Still entranced in ecstasy, I can't respond.")
 ShowMessageFace("saki_fc1",0,0,2,50)
 ShowMessage("\\n<Saki>Aha, you're in a trance.\nSaki will do it again, so wait for then.☆")
 ShowMessageFace("",0,0,2,51)
 ShowMessage("Saki laughs as she watches my dazed expression.")
 221()
 PictureClear(5)
 PictureClear(6)
 246(2)
 ShowMessageFace("",0,0,2,52)
 ShowMessage("......")
 242(2)
 Wait(120)
 241(bytes(0x04,0x08,0x6f,0x3a,0x0d,0x52,0x50,0x47,0x3a,0x3a,0x42,0x47,0x4d,0x08,0x3a,0x0a,0x40,0x6e,0x61,0x6d,0x65,0x49,0x22,0x0c,0x63,0x61,0x73,0x74,0x6c,0x65,0x36,0x06,0x3a,0x06,0x45,0x54,0x3a,0x0c,0x40,0x76,0x6f,0x6c,0x75,0x6d,0x65,0x69,0x69,0x3a,0x0b,0x40,0x70,0x69,0x74,0x63,0x68,0x69,0x69))
 0()
IfPlayerPicksChoice(1,"Just look")
 ShowMessageFace("",0,0,2,53)
 ShowMessage("\\n<Luka>B-But... That...\nI can't do that...")
 ShowMessageFace("saki_fc1",0,0,2,54)
 ShowMessage("\\n<Saki>Areeee? Are you embarrassed?\nThen let Saki help out.☆")
 PictureDisplay(5,"ev_saki_he2",0,0,0,0,100,100,255,0)
 ShowMessageFace("",0,0,2,55)
 ShowMessage("Tentacles grow from Saki's pom-pom and reach toward my body.")
 ShowMessage("Pulled against her, my penis presses against her bare ass.")
 ShowMessageFace("",0,0,2,56)
 ShowMessage("\\n<Luka>Hauuu...")
 ShowMessageFace("",0,0,2,57)
 ShowMessage("My penis is pressed hard against her soft skin.")
 ShowMessage("The warm, elastic feeling makes me moan in surprise.")
 ShowMessageFace("saki_fc1",0,0,2,58)
 ShowMessage("\\n<Saki>Ahaha... Your penis is soooo hard.☆\nSaki's ass is nice and soft, don't you think?♪")
 ShowMessageFace("saki_fc1",0,0,2,59)
 ShowMessage("\\n<Saki>You could put it in here, you know...?\nYou know where, right?")
 245(bytes(0x04,0x08,0x6f,0x3a,0x0d,0x52,0x50,0x47,0x3a,0x3a,0x42,0x47,0x53,0x08,0x3a,0x0a,0x40,0x6e,0x61,0x6d,0x65,0x49,0x22,0x17,0x6d,0x6f,0x6e,0x5f,0x68,0x73,0x65,0x61,0x6e,0x31,0x37,0x5f,0x73,0x69,0x67,0x6f,0x6b,0x69,0x06,0x3a,0x06,0x45,0x54,0x3a,0x0c,0x40,0x76,0x6f,0x6c,0x75,0x6d,0x65,0x69,0x69,0x3a,0x0b,0x40,0x70,0x69,0x74,0x63,0x68,0x69,0x69))
 ShowMessageFace("",0,0,2,60)
 ShowMessage("Saki slowly moves her ass to guide me to her vaginal opening.")
 ShowMessage("As her smooth skin rubs against me, it makes me twitch in response.")
 ShowMessageFace("",0,0,2,61)
 ShowMessage("\\n<Luka>Ah, Auuu...")
 ShowMessageFace("",0,0,2,62)
 ShowMessage("I moan as I rub against her soft ass.")
 ShowMessage("Shocked by the sudden feeling, my waist pulls back in surprise.")
 ShowMessageFace("saki_fc1",0,0,2,63)
 ShowMessage("\\n<Saki>Hey, what are you doing?\nInstead of putting it in, do you just want to rub it on Saki's ass?")
 ShowMessageFace("",0,0,2,64)
 ShowMessage("\\n<Luka>T-That's not why...")
 ShowMessageFace("saki_fc1",0,0,2,65)
 ShowMessage("\\n<Saki>Well then... Hora, here you go. ☆")
 ShowMessageFace("",0,0,2,66)
 ShowMessage("Saki wriggles her ass, moving my glans closer to her slit.")
 ShowMessage("But just having my penis rub against her feels amazing.")
 ShowMessageFace("",0,0,2,67)
 ShowMessage("The more she squirms, the better it feels.")
 ShowMessage("Responding to that, my penis pulses and throbs against her")
 ShowMessageFace("saki_fc1",0,0,2,68)
 ShowMessage("\\n<Saki>Hora, it's over here.☆\nHora, you can do it~♪　You can get it in~♪")
 ShowMessageFace("",0,0,2,69)
 ShowMessage("Saki seems to enjoy teasing me.")
 ShowMessage("Inviting me to stick my penis into her, she's moving her ass back and forth.")
 ShowMessageFace("",0,0,2,70)
 ShowMessage("As she cheers me on, her ass movements get even faster.")
 ShowMessage("My penis is crushed against her soft ass as I fail to stick it in.")
 ShowMessageFace("",0,0,2,71)
 ShowMessage("\\n<Luka>Unnngh...Nnngh...")
 ShowMessageFace("",0,0,2,72)
 ShowMessage("Before I managed to stick it inside, I'm already near my limit.")
 ShowMessageFace("",0,0,2,73)
 ShowMessage("No matter how much I try to hold back, I can't do it.")
 ShowMessage("At this rate, I'm just going to come on her ass...")
 ShowMessageFace("",0,0,2,74)
 ShowMessage("\\n<Luka>Aaah...I'm coming...")
 ShowMessageFace("saki_fc1",0,0,2,75)
 ShowMessage("\\n<Saki>Aree? Already coming...?\nYou didn't stick it in Saki's vagina yet, are you really going to come?")
 ShowMessageFace("",0,0,2,76)
 ShowMessage("Saki presses her ass hard back into me.")
 ShowMessage("Crushed into her soft skin, my head goes pure white.")
 ShowMessageFace("",0,0,2,77)
 ShowMessage("\\n<Luka>Ah, Aaaah...!!")
 RunCommonEvent(104)
 PictureDisplay(5,"ev_saki_he3",0,0,0,0,100,100,255,0)
 RunCommonEvent(105)
 ShowMessageFace("",0,0,2,78)
 ShowMessage("At last, I was unable to take any more.")
 ShowMessage("Shooting out, my semen covers Saki's ass.")
 ShowMessageFace("",0,0,2,79)
 ShowMessage("\\n<Luka>Hau... Aah...")
 ShowMessageFace("",0,0,2,80)
 ShowMessage("Pressing hard into her skin, I taste the full feeling of my orgasm.")
 ShowMessage("By the time my ejaculation was over, her ass was covered in semen.")
 246(2)
 ShowMessageFace("saki_fc1",0,0,2,81)
 ShowMessage("\\n<Saki>Ahaha, you came without even putting it in~♪\nHow embarassing~♪")
 ShowMessageFace("",0,0,2,82)
 ShowMessage("\\n<Luka>......")
 ShowMessageFace("",0,0,2,83)
 ShowMessage("Saki shows off her semen covered ass, laughing.")
 ShowMessage("I can only stare at the cloudy stain in silence.")
 221()
 PictureClear(5)
 PictureClear(6)
 ShowMessageFace("",0,0,2,84)
 ShowMessage("......")
 242(2)
 Wait(120)
 241(bytes(0x04,0x08,0x6f,0x3a,0x0d,0x52,0x50,0x47,0x3a,0x3a,0x42,0x47,0x4d,0x08,0x3a,0x0a,0x40,0x6e,0x61,0x6d,0x65,0x49,0x22,0x0c,0x63,0x61,0x73,0x74,0x6c,0x65,0x36,0x06,0x3a,0x06,0x45,0x54,0x3a,0x0c,0x40,0x76,0x6f,0x6c,0x75,0x6d,0x65,0x69,0x69,0x3a,0x0b,0x40,0x70,0x69,0x74,0x63,0x68,0x69,0x69))
 0()
404()
0()
